simulation/qsim/decod4x16.msim.vcd
$comment
	File created using the following command:
		vcd file decod4x16.msim.vcd -direction
$end
$date
	Wed Apr 18 22:48:01 2018
$end
$version
	ModelSim Version 10.1d
$end
$timescale
	1ps
$end
$scope module decod4x16_vlg_vec_tst $end
$var reg 1 ! bit0 $end
$var reg 1 " bit1 $end
$var reg 1 # bit2 $end
$var reg 1 $ bit3 $end
$var wire 1 % cinco $end
$var wire 1 & dez $end
$var wire 1 ' dois $end
$var wire 1 ( doze $end
$var wire 1 ) nove $end
$var wire 1 * oito $end
$var wire 1 + onze $end
$var wire 1 , quatorze $end
$var wire 1 - quatro $end
$var wire 1 . quinze $end
$var wire 1 / seis $end
$var wire 1 0 sete $end
$var wire 1 1 tres $end
$var wire 1 2 treze $end
$var wire 1 3 um $end
$var wire 1 4 zero $end
$var wire 1 5 sampler $end
$scope module i1 $end
$var wire 1 6 gnd $end
$var wire 1 7 vcc $end
$var wire 1 8 unknown $end
$var tri1 1 9 devclrn $end
$var tri1 1 : devpor $end
$var tri1 1 ; devoe $end
$var wire 1 < zero~output_o $end
$var wire 1 = um~output_o $end
$var wire 1 > dois~output_o $end
$var wire 1 ? tres~output_o $end
$var wire 1 @ quatro~output_o $end
$var wire 1 A cinco~output_o $end
$var wire 1 B seis~output_o $end
$var wire 1 C sete~output_o $end
$var wire 1 D oito~output_o $end
$var wire 1 E nove~output_o $end
$var wire 1 F dez~output_o $end
$var wire 1 G onze~output_o $end
$var wire 1 H doze~output_o $end
$var wire 1 I treze~output_o $end
$var wire 1 J quatorze~output_o $end
$var wire 1 K quinze~output_o $end
$var wire 1 L bit0~input_o $end
$var wire 1 M bit2~input_o $end
$var wire 1 N bit3~input_o $end
$var wire 1 O bit1~input_o $end
$var wire 1 P inst|inst~0_combout $end
$var wire 1 Q inst|inst~1_combout $end
$var wire 1 R inst|inst~2_combout $end
$var wire 1 S inst|inst~3_combout $end
$var wire 1 T inst|inst~4_combout $end
$var wire 1 U inst|inst~5_combout $end
$var wire 1 V inst|inst~6_combout $end
$var wire 1 W inst|inst~7_combout $end
$var wire 1 X inst|inst~8_combout $end
$var wire 1 Y inst|inst~9_combout $end
$var wire 1 Z inst|inst~10_combout $end
$var wire 1 [ inst|inst~11_combout $end
$var wire 1 \ inst|inst~12_combout $end
$var wire 1 ] inst|inst~13_combout $end
$var wire 1 ^ inst|inst~14_combout $end
$var wire 1 _ inst|inst~15_combout $end
$upscope $end
$upscope $end
$enddefinitions $end
#0
$dumpvars
0!
0"
0#
0$
0%
0&
0'
0(
0)
0*
0+
0,
0-
0.
0/
00
01
02
03
14
x5
06
17
x8
19
1:
1;
1<
0=
0>
0?
0@
0A
0B
0C
0D
0E
0F
0G
0H
0I
0J
0K
0L
0M
0N
0O
1P
0Q
0R
0S
0T
0U
0V
0W
0X
0Y
0Z
0[
0\
0]
0^
0_
$end
#20000
1!
1L
05
1Q
0P
1=
0<
13
04
#40000
1"
0!
1O
0L
15
1R
0Q
1>
0=
1'
03
#60000
1!
1L
05
1S
0R
1?
0>
11
0'
#80000
1#
0"
0!
1M
0O
0L
15
1T
0S
1@
0?
1-
01
#100000
1!
1L
05
1U
0T
1A
0@
1%
0-
#120000
1"
0!
1O
0L
15
1V
0U
1B
0A
1/
0%
#140000
1!
1L
05
1W
0V
1C
0B
10
0/
#160000
1$
0#
0"
0!
1N
0M
0O
0L
15
1X
0W
1D
0C
1*
00
#180000
1!
1L
05
1Y
0X
1E
0D
1)
0*
#200000
1"
0!
1O
0L
15
1Z
0Y
1F
0E
1&
0)
#220000
1!
1L
05
1[
0Z
1G
0F
1+
0&
#240000
1#
0"
0!
1M
0O
0L
15
1\
0[
1H
0G
1(
0+
#260000
1!
1L
05
1]
0\
1I
0H
12
0(
#280000
1"
0!
1O
0L
15
1^
0]
1J
0I
1,
02
#300000
1!
1L
05
1_
0^
1K
0J
1.
0,
#320000
0$
0#
0"
0!
0N
0M
0O
0L
15
0_
1P
0K
1<
0.
14
#340000
1!
1L
05
1Q
0P
1=
0<
13
04
#360000
1"
0!
1O
0L
15
1R
0Q
1>
0=
1'
03
#380000
1!
1L
05
1S
0R
1?
0>
11
0'
#400000
1#
0"
0!
1M
0O
0L
15
1T
0S
1@
0?
1-
01
#420000
1!
1L
05
1U
0T
1A
0@
1%
0-
#440000
1"
0!
1O
0L
15
1V
0U
1B
0A
1/
0%
#460000
1!
1L
05
1W
0V
1C
0B
10
0/
#480000
1$
0#
0"
0!
1N
0M
0O
0L
15
1X
0W
1D
0C
1*
00
#500000
1!
1L
05
1Y
0X
1E
0D
1)
0*
#520000
1"
0!
1O
0L
15
1Z
0Y
1F
0E
1&
0)
#540000
1!
1L
05
1[
0Z
1G
0F
1+
0&
#560000
1#
0"
0!
1M
0O
0L
15
1\
0[
1H
0G
1(
0+
#580000
1!
1L
05
1]
0\
1I
0H
12
0(
#600000
1"
0!
1O
0L
15
1^
0]
1J
0I
1,
02
#620000
1!
1L
05
1_
0^
1K
0J
1.
0,
#640000
0$
0#
0"
0!
0N
0M
0O
0L
15
0_
1P
0K
1<
0.
14
#660000
1!
1L
05
1Q
0P
1=
0<
13
04
#680000
1"
0!
1O
0L
15
1R
0Q
1>
0=
1'
03
#700000
1!
1L
05
1S
0R
1?
0>
11
0'
#720000
1#
0"
0!
1M
0O
0L
15
1T
0S
1@
0?
1-
01
#740000
1!
1L
05
1U
0T
1A
0@
1%
0-
#760000
1"
0!
1O
0L
15
1V
0U
1B
0A
1/
0%
#780000
1!
1L
05
1W
0V
1C
0B
10
0/
#800000
1$
0#
0"
0!
1N
0M
0O
0L
15
1X
0W
1D
0C
1*
00
#820000
1!
1L
05
1Y
0X
1E
0D
1)
0*
#840000
1"
0!
1O
0L
15
1Z
0Y
1F
0E
1&
0)
#860000
1!
1L
05
1[
0Z
1G
0F
1+
0&
#880000
1#
0"
0!
1M
0O
0L
15
1\
0[
1H
0G
1(
0+
#900000
1!
1L
05
1]
0\
1I
0H
12
0(
#920000
1"
0!
1O
0L
15
1^
0]
1J
0I
1,
02
#940000
1!
1L
05
1_
0^
1K
0J
1.
0,
#960000
0$
0#
0"
0!
0N
0M
0O
0L
15
0_
1P
0K
1<
0.
14
#980000
1!
1L
05
1Q
0P
1=
0<
13
04
