simulation/qsim/decod3x8.msim.vcd
$comment
	File created using the following command:
		vcd file decod3x8.msim.vcd -direction
$end
$date
	Wed Apr 18 22:37:00 2018
$end
$version
	ModelSim Version 10.1d
$end
$timescale
	1ps
$end
$scope module decod3x8_vlg_vec_tst $end
$var reg 1 ! bit0 $end
$var reg 1 " bit1 $end
$var reg 1 # bit2 $end
$var reg 1 $ enable $end
$var wire 1 % cinco $end
$var wire 1 & dois $end
$var wire 1 ' quatro $end
$var wire 1 ( seis $end
$var wire 1 ) sete $end
$var wire 1 * tres $end
$var wire 1 + um $end
$var wire 1 , zero $end
$var wire 1 - sampler $end
$scope module i1 $end
$var wire 1 . gnd $end
$var wire 1 / vcc $end
$var wire 1 0 unknown $end
$var tri1 1 1 devclrn $end
$var tri1 1 2 devpor $end
$var tri1 1 3 devoe $end
$var wire 1 4 zero~output_o $end
$var wire 1 5 um~output_o $end
$var wire 1 6 quatro~output_o $end
$var wire 1 7 cinco~output_o $end
$var wire 1 8 dois~output_o $end
$var wire 1 9 tres~output_o $end
$var wire 1 : seis~output_o $end
$var wire 1 ; sete~output_o $end
$var wire 1 < bit2~input_o $end
$var wire 1 = bit0~input_o $end
$var wire 1 > enable~input_o $end
$var wire 1 ? bit1~input_o $end
$var wire 1 @ inst~combout $end
$var wire 1 A inst3~combout $end
$var wire 1 B inst6~combout $end
$var wire 1 C inst7~combout $end
$var wire 1 D inst4~combout $end
$var wire 1 E inst5~combout $end
$var wire 1 F inst8~combout $end
$var wire 1 G inst9~combout $end
$upscope $end
$upscope $end
$enddefinitions $end
#0
$dumpvars
0!
0"
0#
0$
0%
0&
0'
0(
0)
0*
0+
0,
x-
0.
1/
x0
11
12
13
04
05
06
07
08
09
0:
0;
0<
0=
0>
0?
0@
0A
0B
0C
0D
0E
0F
0G
$end
#20000
1!
1=
0-
#40000
1"
0!
1?
0=
1-
#60000
1!
1=
0-
#80000
1#
0"
0!
1<
0?
0=
1-
#100000
1!
1=
0-
#120000
1"
0!
1?
0=
1-
#140000
1!
1=
0-
#160000
1$
0#
0"
0!
1>
0<
0?
0=
1-
1@
14
1,
#180000
1!
1=
0-
1A
0@
15
04
1+
0,
#200000
1"
0!
1?
0=
1-
1D
0A
18
05
1&
0+
#220000
1!
1=
0-
1E
0D
19
08
1*
0&
#240000
1#
0"
0!
1<
0?
0=
1-
0E
1B
09
16
0*
1'
#260000
1!
1=
0-
1C
0B
17
06
1%
0'
#280000
1"
0!
1?
0=
1-
1F
0C
1:
07
1(
0%
#300000
1!
1=
0-
1G
0F
1;
0:
1)
0(
#320000
0$
0#
0"
0!
0>
0<
0?
0=
1-
0G
0;
0)
#340000
1!
1=
0-
#360000
1"
0!
1?
0=
1-
#380000
1!
1=
0-
#400000
1#
0"
0!
1<
0?
0=
1-
#420000
1!
1=
0-
#440000
1"
0!
1?
0=
1-
#460000
1!
1=
0-
#480000
1$
0#
0"
0!
1>
0<
0?
0=
1-
1@
14
1,
#500000
1!
1=
0-
1A
0@
15
04
1+
0,
#520000
1"
0!
1?
0=
1-
1D
0A
18
05
1&
0+
#540000
1!
1=
0-
1E
0D
19
08
1*
0&
#560000
1#
0"
0!
1<
0?
0=
1-
0E
1B
09
16
0*
1'
#580000
1!
1=
0-
1C
0B
17
06
1%
0'
#600000
1"
0!
1?
0=
1-
1F
0C
1:
07
1(
0%
#620000
1!
1=
0-
1G
0F
1;
0:
1)
0(
#640000
0$
0#
0"
0!
0>
0<
0?
0=
1-
0G
0;
0)
#660000
1!
1=
0-
#680000
1"
0!
1?
0=
1-
#700000
1!
1=
0-
#720000
1#
0"
0!
1<
0?
0=
1-
#740000
1!
1=
0-
#760000
1"
0!
1?
0=
1-
#780000
1!
1=
0-
#800000
1$
0#
0"
0!
1>
0<
0?
0=
1-
1@
14
1,
#820000
1!
1=
0-
1A
0@
15
04
1+
0,
#840000
1"
0!
1?
0=
1-
1D
0A
18
05
1&
0+
#860000
1!
1=
0-
1E
0D
19
08
1*
0&
#880000
1#
0"
0!
1<
0?
0=
1-
0E
1B
09
16
0*
1'
#900000
1!
1=
0-
1C
0B
17
06
1%
0'
#920000
1"
0!
1?
0=
1-
1F
0C
1:
07
1(
0%
#940000
1!
1=
0-
1G
0F
1;
0:
1)
0(
#960000
0$
0#
0"
0!
0>
0<
0?
0=
1-
0G
0;
0)
#980000
1!
1=
0-
