simulation/qsim/fulladder8bits.msim.vcd
$comment
	File created using the following command:
		vcd file fulladder8bits.msim.vcd -direction
$end
$date
	Wed Apr 18 23:37:27 2018
$end
$version
	ModelSim Version 10.1d
$end
$timescale
	1ps
$end
$scope module fulladder8bits_vlg_vec_tst $end
$var reg 8 ! A [7:0] $end
$var reg 8 " B [7:0] $end
$var wire 1 # cout $end
$var wire 1 $ S [7] $end
$var wire 1 % S [6] $end
$var wire 1 & S [5] $end
$var wire 1 ' S [4] $end
$var wire 1 ( S [3] $end
$var wire 1 ) S [2] $end
$var wire 1 * S [1] $end
$var wire 1 + S [0] $end
$var wire 1 , sampler $end
$scope module i1 $end
$var wire 1 - gnd $end
$var wire 1 . vcc $end
$var wire 1 / unknown $end
$var tri1 1 0 devclrn $end
$var tri1 1 1 devpor $end
$var tri1 1 2 devoe $end
$var wire 1 3 cout~output_o $end
$var wire 1 4 S[7]~output_o $end
$var wire 1 5 S[6]~output_o $end
$var wire 1 6 S[5]~output_o $end
$var wire 1 7 S[4]~output_o $end
$var wire 1 8 S[3]~output_o $end
$var wire 1 9 S[2]~output_o $end
$var wire 1 : S[1]~output_o $end
$var wire 1 ; S[0]~output_o $end
$var wire 1 < A[7]~input_o $end
$var wire 1 = B[6]~input_o $end
$var wire 1 > A[6]~input_o $end
$var wire 1 ? A[4]~input_o $end
$var wire 1 @ B[3]~input_o $end
$var wire 1 A B[1]~input_o $end
$var wire 1 B B[0]~input_o $end
$var wire 1 C A[0]~input_o $end
$var wire 1 D A[1]~input_o $end
$var wire 1 E inst2|inst5~0_combout $end
$var wire 1 F A[2]~input_o $end
$var wire 1 G inst3|inst5~0_combout $end
$var wire 1 H A[3]~input_o $end
$var wire 1 I B[2]~input_o $end
$var wire 1 J inst3|inst5~1_combout $end
$var wire 1 K inst4|inst5~0_combout $end
$var wire 1 L B[4]~input_o $end
$var wire 1 M inst5|inst5~1_combout $end
$var wire 1 N inst5|inst5~0_combout $end
$var wire 1 O B[5]~input_o $end
$var wire 1 P A[5]~input_o $end
$var wire 1 Q inst6|inst5~0_combout $end
$var wire 1 R inst7|inst5~1_combout $end
$var wire 1 S inst7|inst5~0_combout $end
$var wire 1 T B[7]~input_o $end
$var wire 1 U inst8|inst5~0_combout $end
$var wire 1 V inst8|inst1~combout $end
$var wire 1 W inst7|inst1~0_combout $end
$var wire 1 X inst6|inst1~combout $end
$var wire 1 Y inst5|inst1~0_combout $end
$var wire 1 Z inst4|inst1~combout $end
$var wire 1 [ inst3|inst1~0_combout $end
$var wire 1 \ inst2|inst1~0_combout $end
$var wire 1 ] inst|inst4~combout $end
$upscope $end
$upscope $end
$enddefinitions $end
#0
$dumpvars
b0 !
b0 "
0#
0+
0*
0)
0(
0'
0&
0%
0$
x,
0-
1.
x/
10
11
12
03
04
05
06
07
08
09
0:
0;
0<
0=
0>
0?
0@
0A
0B
0C
0D
0E
0F
0G
0H
0I
0J
0K
0L
0M
0N
0O
0P
0Q
0R
0S
0T
0U
0V
0W
0X
0Y
0Z
0[
0\
0]
$end
#10000
b1 "
1B
0,
1]
1;
1+
#20000
b11 "
b10 "
0B
1A
1,
0]
1\
0;
1:
0+
1*
#30000
b11 "
1B
0,
1]
1;
1+
#40000
b111 "
b101 "
b100 "
0B
0A
1I
1,
0]
0\
1[
0;
0:
19
0+
0*
1)
#50000
b101 "
1B
0,
1]
1;
1+
#60000
b111 "
b110 "
0B
1A
1,
0]
1\
0;
1:
0+
1*
#70000
b111 "
1B
0,
1]
1;
1+
#80000
b1111 "
b1011 "
b1001 "
b1000 "
0B
0A
0I
1@
1,
0]
0\
0[
1Z
0;
0:
09
18
0+
0*
0)
1(
#90000
b1001 "
1B
0,
1]
1;
1+
#100000
b1 !
b1011 "
b1010 "
0B
1A
1C
1,
1\
1:
1*
#110000
b1011 "
1B
0,
1E
0]
0\
0;
0:
0+
0*
1[
19
1)
#120000
b1111 "
b1101 "
b1100 "
0B
0A
1I
1,
0E
1J
1]
0[
0J
1K
1;
09
1+
0)
1[
0Z
0K
19
08
1)
0(
1Z
1Y
18
17
1(
1'
0Y
07
0'
#130000
b1101 "
1B
0,
0]
1\
0;
1:
0+
1*
#140000
b1111 "
b1110 "
0B
1A
1,
1]
1;
1+
#150000
b1111 "
1B
0,
1E
0]
0\
1J
0;
0:
0+
0*
0[
1K
09
0)
0Z
08
0(
1Y
17
1'
#160000
b11111 "
b10111 "
b10011 "
b10001 "
b10000 "
0B
0A
0I
0@
1L
1,
0E
0J
0K
1M
1]
1[
1Z
0Y
0M
1;
19
18
07
1+
1)
1(
0'
0[
0Z
1Y
1X
09
08
17
16
0)
0(
1'
1&
0X
06
0&
#170000
b10001 "
1B
0,
0]
1\
0;
1:
0+
1*
#180000
b10011 "
b10010 "
0B
1A
1,
1]
1;
1+
#190000
b10011 "
1B
0,
1E
0]
0\
0;
0:
0+
0*
1[
19
1)
#200000
b11 !
b10 !
b10111 "
b10101 "
b10100 "
0B
0A
1I
0C
1D
1,
0E
1J
1\
0[
0J
1:
09
1*
0)
1[
1Z
19
18
1)
1(
0Z
08
0(
#210000
b10101 "
1B
0,
1]
1;
1+
#220000
b10111 "
b10110 "
0B
1A
1,
1E
0]
0\
1J
0;
0:
0+
0*
0[
09
0)
1Z
18
1(
#230000
b10111 "
1B
0,
1]
1;
1+
#240000
b11111 "
b11011 "
b11001 "
b11000 "
0B
0A
0I
1@
1,
0E
0J
1K
0]
1\
1[
0Z
0K
1M
0;
1:
19
08
0+
1*
1)
0(
0[
1Z
0Y
0M
09
18
07
0)
1(
0'
1Y
1X
17
16
1'
1&
0X
06
0&
#250000
b11001 "
1B
0,
1]
1;
1+
#260000
b11011 "
b11010 "
0B
1A
1,
1E
0]
0\
0;
0:
0+
0*
1[
19
1)
#270000
b11011 "
1B
0,
1]
1;
1+
#280000
b11111 "
b11101 "
b11100 "
0B
0A
1I
1,
0E
1J
0]
1\
0[
0J
1K
0;
1:
09
0+
1*
0)
1[
0Z
0K
1M
19
08
1)
0(
1Z
0Y
0M
18
07
1(
0'
1Y
1X
17
16
1'
1&
0X
06
0&
#290000
b11101 "
1B
0,
1]
1;
1+
#300000
b11 !
b11111 "
b11110 "
0B
1A
1C
1,
1E
0\
1J
0:
0*
0[
1K
09
0)
0Z
1M
08
0(
0Y
07
0'
1X
16
1&
#310000
b11111 "
1B
0,
0]
1\
0;
1:
0+
1*
#320000
b111111 "
b101111 "
b100111 "
b100011 "
b100001 "
b100000 "
0B
0A
0I
0@
0L
1O
1,
0E
0J
0K
0M
1Q
1]
1[
1Z
1Y
0X
0Q
1;
19
18
17
06
1+
1)
1(
1'
0&
0[
0Z
0Y
1X
1W
09
08
07
16
15
0)
0(
0'
1&
1%
0W
05
0%
#330000
b100001 "
1B
0,
1E
0]
0\
0;
0:
0+
0*
1[
19
1)
#340000
b100011 "
b100010 "
0B
1A
1,
1]
1;
1+
#350000
b100011 "
1B
0,
0]
1\
0;
1:
0+
1*
#360000
b100111 "
b100101 "
b100100 "
0B
0A
1I
1,
0E
1J
1]
0[
0J
1;
09
1+
0)
1[
1Z
19
18
1)
1(
0Z
08
0(
#370000
b100101 "
1B
0,
1E
0]
0\
1J
0;
0:
0+
0*
0[
09
0)
1Z
18
1(
#380000
b100111 "
b100110 "
0B
1A
1,
1]
1;
1+
#390000
b100111 "
1B
0,
0]
1\
0;
1:
0+
1*
#400000
b111 !
b101 !
b100 !
b101111 "
b101011 "
b101001 "
b101000 "
0B
0A
0I
1@
0C
0D
1F
1,
0E
0J
1K
1G
0\
0Z
0G
0:
08
0*
0(
1[
1Y
0K
19
17
1)
1'
1Z
18
1(
0Y
07
0'
#410000
b101001 "
1B
0,
1]
1;
1+
#420000
b101011 "
b101010 "
0B
1A
1,
0]
1\
0;
1:
0+
1*
#430000
b101011 "
1B
0,
1]
1;
1+
#440000
b101111 "
b101101 "
b101100 "
0B
0A
1I
1,
1J
0]
0\
0[
1K
0;
0:
09
0+
0*
0)
0Z
08
0(
1Y
17
1'
#450000
b101101 "
1B
0,
1]
1;
1+
#460000
b101111 "
b101110 "
0B
1A
1,
0]
1\
0;
1:
0+
1*
#470000
b101111 "
1B
0,
1]
1;
1+
#480000
b111111 "
b110111 "
b110011 "
b110001 "
b110000 "
0B
0A
0I
0@
1L
1,
0J
0K
1M
0]
0\
1[
1Z
0Y
0M
1Q
0;
0:
19
18
07
0+
0*
1)
1(
0'
0Z
1Y
0X
0Q
08
17
06
0(
1'
0&
1X
1W
16
15
1&
1%
0W
05
0%
#490000
b110001 "
1B
0,
1]
1;
1+
#500000
b101 !
b110011 "
b110010 "
0B
1A
1C
1,
1\
1:
1*
#510000
b110011 "
1B
0,
1E
0]
0\
1G
0;
0:
0+
0*
0[
09
0)
1Z
18
1(
#520000
b110111 "
b110101 "
b110100 "
0B
0A
1I
1,
0E
1J
1]
1[
0G
1;
19
1+
1)
0[
09
0)
#530000
b110101 "
1B
0,
0]
1\
0;
1:
0+
1*
#540000
b110111 "
b110110 "
0B
1A
1,
1]
1;
1+
#550000
b110111 "
1B
0,
1E
0]
0\
1G
0;
0:
0+
0*
1[
19
1)
#560000
b111111 "
b111011 "
b111001 "
b111000 "
0B
0A
0I
1@
1,
0E
0J
1K
1]
0[
0Z
0G
1M
1;
09
08
1+
0)
0(
1[
0Y
0K
1Q
19
07
1)
0'
1Z
0X
0M
18
06
1(
0&
1Y
1W
0Q
17
15
1'
1%
1X
16
1&
0W
05
0%
#570000
b111001 "
1B
0,
0]
1\
0;
1:
0+
1*
#580000
b111011 "
b111010 "
0B
1A
1,
1]
1;
1+
#590000
b111011 "
1B
0,
1E
0]
0\
1G
0;
0:
0+
0*
0[
1K
09
0)
0Z
1M
08
0(
0Y
1Q
07
0'
0X
06
0&
1W
15
1%
#600000
b111 !
b110 !
b111111 "
b111101 "
b111100 "
0B
0A
1I
0C
1D
1,
0E
1J
1\
1[
0G
1:
19
1*
1)
0[
09
0)
#610000
b111101 "
1B
0,
1]
1;
1+
#620000
b111111 "
b111110 "
0B
1A
1,
1E
0]
0\
1G
0;
0:
0+
0*
1[
19
1)
#630000
b111111 "
1B
0,
1]
1;
1+
#640000
b1111111 "
b1011111 "
b1001111 "
b1000111 "
b1000011 "
b1000001 "
b1000000 "
0B
0A
0I
0@
0L
0O
1=
1,
0E
0J
0K
0M
0Q
1R
0]
1\
0[
1Z
1Y
1X
0W
0G
0R
0;
1:
09
18
17
16
05
0+
1*
0)
1(
1'
1&
0%
1[
0Y
0X
1W
1V
19
07
06
15
14
1)
0'
0&
1%
1$
0Z
0V
08
04
0(
0$
#650000
b1000001 "
1B
0,
1]
1;
1+
#660000
b1000011 "
b1000010 "
0B
1A
1,
1E
0]
0\
1G
0;
0:
0+
0*
0[
09
0)
1Z
18
1(
#670000
b1000011 "
1B
0,
1]
1;
1+
#680000
b1000111 "
b1000101 "
b1000100 "
0B
0A
1I
1,
0E
1J
0]
1\
1[
0G
0;
1:
19
0+
1*
1)
0[
09
0)
#690000
b1000101 "
1B
0,
1]
1;
1+
#700000
b111 !
b1000111 "
b1000110 "
0B
1A
1C
1,
1E
0\
1G
0:
0*
1[
19
1)
#710000
b1000111 "
1B
0,
0]
1\
0;
1:
0+
1*
#720000
b1001111 "
b1001011 "
b1001001 "
b1001000 "
0B
0A
0I
1@
1,
0E
0J
1K
1]
0[
0Z
0G
1;
09
08
1+
0)
0(
1[
1Y
0K
19
17
1)
1'
1Z
18
1(
0Y
07
0'
#730000
b1001001 "
1B
0,
1E
0]
0\
1G
0;
0:
0+
0*
0[
1K
09
0)
0Z
08
0(
1Y
17
1'
#740000
b1001011 "
b1001010 "
0B
1A
1,
1]
1;
1+
#750000
b1001011 "
1B
0,
0]
1\
0;
1:
0+
1*
#760000
b1001111 "
b1001101 "
b1001100 "
0B
0A
1I
1,
0E
1J
1]
1[
0G
1;
19
1+
1)
0[
09
0)
#770000
b1001101 "
1B
0,
1E
0]
0\
1G
0;
0:
0+
0*
1[
19
1)
#780000
b1001111 "
b1001110 "
0B
1A
1,
1]
1;
1+
#790000
b1001111 "
1B
0,
0]
1\
0;
1:
0+
1*
#800000
b1111 !
b1011 !
b1001 !
b1011111 "
b1000 !
b1010111 "
b1010011 "
b1010001 "
b1010000 "
0B
0A
0I
0@
1L
0C
0D
0F
1H
1,
0E
0J
1M
0G
0\
0Y
0K
0:
07
0*
0'
0[
1Z
1X
0M
09
18
16
0)
1(
1&
1Y
17
1'
0X
06
0&
#810000
b1010001 "
1B
0,
1]
1;
1+
#820000
b1010011 "
b1010010 "
0B
1A
1,
0]
1\
0;
1:
0+
1*
#830000
b1010011 "
1B
0,
1]
1;
1+
#840000
b1010111 "
b1010101 "
b1010100 "
0B
0A
1I
1,
0]
0\
1[
0;
0:
19
0+
0*
1)
#850000
b1010101 "
1B
0,
1]
1;
1+
#860000
b1010111 "
b1010110 "
0B
1A
1,
0]
1\
0;
1:
0+
1*
#870000
b1010111 "
1B
0,
1]
1;
1+
#880000
b1011111 "
b1011011 "
b1011001 "
b1011000 "
0B
0A
0I
1@
1,
1K
0]
0\
0[
0Z
1M
0;
0:
09
08
0+
0*
0)
0(
0Y
07
0'
1X
16
1&
#890000
b1011001 "
1B
0,
1]
1;
1+
#900000
b1001 !
b1011011 "
b1011010 "
0B
1A
1C
1,
1\
1:
1*
#910000
b1011011 "
1B
0,
1E
0]
0\
0;
0:
0+
0*
1[
19
1)
#920000
b1011111 "
b1011101 "
b1011100 "
0B
0A
1I
1,
0E
1J
1]
0[
0J
1;
09
1+
0)
1[
1Z
19
18
1)
1(
0Z
08
0(
#930000
b1011101 "
1B
0,
0]
1\
0;
1:
0+
1*
#940000
b1011111 "
b1011110 "
0B
1A
1,
1]
1;
1+
#950000
b1011111 "
1B
0,
1E
0]
0\
1J
0;
0:
0+
0*
0[
09
0)
1Z
18
1(
#960000
b1111111 "
b1101111 "
b1100111 "
b1100011 "
b1100001 "
b1100000 "
0B
0A
0I
0@
0L
1O
1,
0E
0J
0M
1Q
1]
1[
0Z
1Y
0X
0K
0Q
1R
1;
19
08
17
06
1+
1)
0(
1'
0&
0[
1Z
1X
0W
0R
09
18
16
05
0)
1(
1&
0%
0Y
1W
1V
07
15
14
0'
1%
1$
0V
04
0$
#970000
b1100001 "
1B
0,
0]
1\
0;
1:
0+
1*
#980000
b1100011 "
b1100010 "
0B
1A
1,
1]
1;
1+
#990000
b1100011 "
1B
0,
1E
0]
0\
0;
0:
0+
0*
1[
19
1)
