simulation/qsim/mux2x1.msim.vcd
$comment
	File created using the following command:
		vcd file mux2x1.msim.vcd -direction
$end
$date
	Wed Apr 18 22:59:22 2018
$end
$version
	ModelSim Version 10.1d
$end
$timescale
	1ps
$end
$scope module mux2x1_vlg_vec_tst $end
$var reg 1 ! A $end
$var reg 1 " B $end
$var reg 1 # sel $end
$var wire 1 $ OUTPUT $end
$var wire 1 % sampler $end
$scope module i1 $end
$var wire 1 & gnd $end
$var wire 1 ' vcc $end
$var wire 1 ( unknown $end
$var tri1 1 ) devclrn $end
$var tri1 1 * devpor $end
$var tri1 1 + devoe $end
$var wire 1 , OUTPUT~output_o $end
$var wire 1 - sel~input_o $end
$var wire 1 . B~input_o $end
$var wire 1 / A~input_o $end
$var wire 1 0 inst3~0_combout $end
$upscope $end
$upscope $end
$enddefinitions $end
#0
$dumpvars
0!
0"
0#
0$
x%
0&
1'
x(
1)
1*
1+
0,
0-
0.
0/
00
$end
#20000
1!
1/
0%
10
1,
1$
#40000
1"
0!
1.
0/
1%
00
0,
0$
#60000
1!
1/
0%
10
1,
1$
#80000
1#
0"
0!
1-
0.
0/
1%
00
0,
0$
#100000
1!
1/
0%
#120000
1"
0!
1.
0/
1%
10
1,
1$
#140000
1!
1/
0%
#160000
0#
0"
0!
0-
0.
0/
1%
00
0,
0$
#180000
1!
1/
0%
10
1,
1$
#200000
1"
0!
1.
0/
1%
00
0,
0$
#220000
1!
1/
0%
10
1,
1$
#240000
1#
0"
0!
1-
0.
0/
1%
00
0,
0$
#260000
1!
1/
0%
#280000
1"
0!
1.
0/
1%
10
1,
1$
#300000
1!
1/
0%
#320000
0#
0"
0!
0-
0.
0/
1%
00
0,
0$
#340000
1!
1/
0%
10
1,
1$
#360000
1"
0!
1.
0/
1%
00
0,
0$
#380000
1!
1/
0%
10
1,
1$
#400000
1#
0"
0!
1-
0.
0/
1%
00
0,
0$
#420000
1!
1/
0%
#440000
1"
0!
1.
0/
1%
10
1,
1$
#460000
1!
1/
0%
#480000
0#
0"
0!
0-
0.
0/
1%
00
0,
0$
#500000
1!
1/
0%
10
1,
1$
#520000
1"
0!
1.
0/
1%
00
0,
0$
#540000
1!
1/
0%
10
1,
1$
#560000
1#
0"
0!
1-
0.
0/
1%
00
0,
0$
#580000
1!
1/
0%
#600000
1"
0!
1.
0/
1%
10
1,
1$
#620000
1!
1/
0%
#640000
0#
0"
0!
0-
0.
0/
1%
00
0,
0$
#660000
1!
1/
0%
10
1,
1$
#680000
1"
0!
1.
0/
1%
00
0,
0$
#700000
1!
1/
0%
10
1,
1$
#720000
1#
0"
0!
1-
0.
0/
1%
00
0,
0$
#740000
1!
1/
0%
#760000
1"
0!
1.
0/
1%
10
1,
1$
#780000
1!
1/
0%
#800000
0#
0"
0!
0-
0.
0/
1%
00
0,
0$
#820000
1!
1/
0%
10
1,
1$
#840000
1"
0!
1.
0/
1%
00
0,
0$
#860000
1!
1/
0%
10
1,
1$
#880000
1#
0"
0!
1-
0.
0/
1%
00
0,
0$
#900000
1!
1/
0%
#920000
1"
0!
1.
0/
1%
10
1,
1$
#940000
1!
1/
0%
#960000
0#
0"
0!
0-
0.
0/
1%
00
0,
0$
#980000
1!
1/
0%
10
1,
1$
