simulation/qsim/mux2x18bits.msim.vcd
$comment
	File created using the following command:
		vcd file mux2x18bits.msim.vcd -direction
$end
$date
	Wed Apr 18 23:05:55 2018
$end
$version
	ModelSim Version 10.1d
$end
$timescale
	1ps
$end
$scope module mux2x18bits_vlg_vec_tst $end
$var reg 8 ! A [7:0] $end
$var reg 8 " B [7:0] $end
$var reg 1 # sel $end
$var wire 1 $ OUTPUT [7] $end
$var wire 1 % OUTPUT [6] $end
$var wire 1 & OUTPUT [5] $end
$var wire 1 ' OUTPUT [4] $end
$var wire 1 ( OUTPUT [3] $end
$var wire 1 ) OUTPUT [2] $end
$var wire 1 * OUTPUT [1] $end
$var wire 1 + OUTPUT [0] $end
$var wire 1 , sampler $end
$scope module i1 $end
$var wire 1 - gnd $end
$var wire 1 . vcc $end
$var wire 1 / unknown $end
$var tri1 1 0 devclrn $end
$var tri1 1 1 devpor $end
$var tri1 1 2 devoe $end
$var wire 1 3 OUTPUT[7]~output_o $end
$var wire 1 4 OUTPUT[6]~output_o $end
$var wire 1 5 OUTPUT[5]~output_o $end
$var wire 1 6 OUTPUT[4]~output_o $end
$var wire 1 7 OUTPUT[3]~output_o $end
$var wire 1 8 OUTPUT[2]~output_o $end
$var wire 1 9 OUTPUT[1]~output_o $end
$var wire 1 : OUTPUT[0]~output_o $end
$var wire 1 ; B[7]~input_o $end
$var wire 1 < A[7]~input_o $end
$var wire 1 = sel~input_o $end
$var wire 1 > inst7|inst3~0_combout $end
$var wire 1 ? A[6]~input_o $end
$var wire 1 @ B[6]~input_o $end
$var wire 1 A inst8|inst3~0_combout $end
$var wire 1 B B[5]~input_o $end
$var wire 1 C A[5]~input_o $end
$var wire 1 D inst5|inst3~0_combout $end
$var wire 1 E A[4]~input_o $end
$var wire 1 F B[4]~input_o $end
$var wire 1 G inst6|inst3~0_combout $end
$var wire 1 H B[3]~input_o $end
$var wire 1 I A[3]~input_o $end
$var wire 1 J inst3|inst3~0_combout $end
$var wire 1 K B[2]~input_o $end
$var wire 1 L A[2]~input_o $end
$var wire 1 M inst2|inst3~0_combout $end
$var wire 1 N A[1]~input_o $end
$var wire 1 O B[1]~input_o $end
$var wire 1 P inst1|inst3~0_combout $end
$var wire 1 Q B[0]~input_o $end
$var wire 1 R A[0]~input_o $end
$var wire 1 S inst|inst3~0_combout $end
$upscope $end
$upscope $end
$enddefinitions $end
#0
$dumpvars
b0 !
b0 "
0#
0+
0*
0)
0(
0'
0&
0%
0$
x,
0-
1.
x/
10
11
12
03
04
05
06
07
08
09
0:
0;
0<
0=
0>
0?
0@
0A
0B
0C
0D
0E
0F
0G
0H
0I
0J
0K
0L
0M
0N
0O
0P
0Q
0R
0S
$end
#80000
b1 !
1R
0,
1S
1:
1+
#160000
b11 !
b1 "
b10 !
1Q
0R
1N
1,
0S
1P
0:
19
0+
1*
#240000
b11 !
1R
0,
1S
1:
1+
#320000
b111 !
b11 "
1#
b101 !
b10 "
b100 !
0Q
1O
0R
0N
1L
1=
1,
0S
0:
0+
#400000
b101 !
1R
0,
#480000
b111 !
b11 "
b110 !
1Q
0R
1N
1,
1S
1:
1+
#560000
b111 !
1R
0,
#640000
b1111 !
b111 "
b1011 !
b101 "
0#
b1001 !
b100 "
b1000 !
0Q
0O
1K
0R
0N
0L
1I
0=
1,
0S
0P
1J
0:
09
17
0+
0*
1(
#720000
b1001 !
1R
0,
1S
1:
1+
#800000
b1011 !
b101 "
b1010 !
1Q
0R
1N
1,
0S
1P
0:
19
0+
1*
#880000
b1011 !
1R
0,
1S
1:
1+
#960000
b1111 !
b111 "
1#
b1101 !
b110 "
b1100 !
0Q
1O
0R
0N
1L
1=
1,
0S
1M
0J
0:
18
07
0+
1)
0(
