simulation/qsim/mux4x1_1bit.msim.vcd
$comment
	File created using the following command:
		vcd file mux4x1_1bit.msim.vcd -direction
$end
$date
	Fri Apr 20 21:36:17 2018
$end
$version
	ModelSim Version 10.1d
$end
$timescale
	1ps
$end
$scope module mux4x1_1bit_vlg_vec_tst $end
$var reg 1 ! entradaA $end
$var reg 1 " entradaB $end
$var reg 1 # entradaC $end
$var reg 1 $ entradaD $end
$var reg 2 % sel [1:0] $end
$var wire 1 & out_put $end
$var wire 1 ' sampler $end
$scope module i1 $end
$var wire 1 ( gnd $end
$var wire 1 ) vcc $end
$var wire 1 * unknown $end
$var tri1 1 + devclrn $end
$var tri1 1 , devpor $end
$var tri1 1 - devoe $end
$var wire 1 . out_put~output_o $end
$var wire 1 / entradaD~input_o $end
$var wire 1 0 entradaB~input_o $end
$var wire 1 1 entradaA~input_o $end
$var wire 1 2 sel[1]~input_o $end
$var wire 1 3 sel[0]~input_o $end
$var wire 1 4 inst2|inst3~0_combout $end
$var wire 1 5 entradaC~input_o $end
$var wire 1 6 inst2|inst3~1_combout $end
$upscope $end
$upscope $end
$enddefinitions $end
#0
$dumpvars
0!
0"
1#
0$
b11 %
0&
x'
0(
1)
x*
1+
1,
1-
0.
0/
00
01
12
13
14
15
06
$end
#30000
0#
05
0'
#60000
1!
b1 %
b0 %
1#
11
03
02
15
1'
16
1.
1&
#90000
1"
1$
b10 %
0#
10
1/
12
05
0'
04
06
0.
0&
#120000
b11 %
0$
b1 %
1#
13
02
0/
15
1'
14
16
1.
1&
#150000
0!
1$
b11 %
01
1/
12
0'
#180000
b10 %
0#
0$
03
05
0/
1'
04
06
0.
0&
#210000
b0 %
1#
02
15
0'
#240000
0"
b1 %
00
13
1'
#270000
1!
b11 %
0#
11
12
05
0'
14
#300000
1$
1"
1/
10
1'
16
1.
1&
#330000
b10 %
b0 %
0$
0"
03
02
0/
00
0'
#360000
0!
b1 %
b11 %
1$
1"
01
13
12
1/
10
1'
#390000
1!
b10 %
0"
11
03
00
0'
04
06
0.
0&
#420000
1#
b0 %
0$
0!
b1 %
15
13
02
0/
01
1'
#450000
b11 %
1$
b10 %
03
12
1/
0'
16
1.
1&
#480000
1"
b0 %
10
02
1'
06
0.
0&
#510000
0#
1!
b10 %
05
11
12
0'
#540000
0"
0!
00
01
1'
#570000
1#
b0 %
1"
1!
15
02
10
11
0'
14
16
1.
1&
#600000
b10 %
12
1'
04
#630000
0$
b11 %
0#
0"
0/
13
05
00
0'
14
06
0.
0&
#660000
0!
01
1'
#690000
b10 %
1!
03
11
0'
04
#720000
1$
1"
b11 %
1/
10
13
1'
14
16
1.
1&
#750000
b1 %
1#
b0 %
03
02
15
0'
#780000
0!
0$
0#
01
0/
05
1'
04
06
0.
0&
#810000
b1 %
1$
1#
13
1/
15
0'
14
16
1.
1&
#840000
b11 %
0$
0#
12
0/
05
1'
06
0.
0&
#870000
b1 %
1#
02
15
0'
16
1.
1&
#900000
0"
1$
0#
00
1/
05
1'
04
06
0.
0&
#930000
b0 %
1#
03
15
0'
#960000
b10 %
0#
12
05
1'
