simulation/qsim/mux4x18bits.msim.vcd
$comment
	File created using the following command:
		vcd file mux4x18bits.msim.vcd -direction
$end
$date
	Wed Apr 18 23:21:28 2018
$end
$version
	ModelSim Version 10.1d
$end
$timescale
	1ps
$end
$scope module mux4x18bits_vlg_vec_tst $end
$var reg 8 ! AND [7:0] $end
$var reg 8 " NOT [7:0] $end
$var reg 8 # OR [7:0] $end
$var reg 2 $ sel [1:0] $end
$var reg 8 % SUM [7:0] $end
$var wire 1 & OUTPUT [7] $end
$var wire 1 ' OUTPUT [6] $end
$var wire 1 ( OUTPUT [5] $end
$var wire 1 ) OUTPUT [4] $end
$var wire 1 * OUTPUT [3] $end
$var wire 1 + OUTPUT [2] $end
$var wire 1 , OUTPUT [1] $end
$var wire 1 - OUTPUT [0] $end
$var wire 1 . sampler $end
$scope module i1 $end
$var wire 1 / gnd $end
$var wire 1 0 vcc $end
$var wire 1 1 unknown $end
$var tri1 1 2 devclrn $end
$var tri1 1 3 devpor $end
$var tri1 1 4 devoe $end
$var wire 1 5 OUTPUT[7]~output_o $end
$var wire 1 6 OUTPUT[6]~output_o $end
$var wire 1 7 OUTPUT[5]~output_o $end
$var wire 1 8 OUTPUT[4]~output_o $end
$var wire 1 9 OUTPUT[3]~output_o $end
$var wire 1 : OUTPUT[2]~output_o $end
$var wire 1 ; OUTPUT[1]~output_o $end
$var wire 1 < OUTPUT[0]~output_o $end
$var wire 1 = SUM[7]~input_o $end
$var wire 1 > sel[1]~input_o $end
$var wire 1 ? NOT[7]~input_o $end
$var wire 1 @ AND[7]~input_o $end
$var wire 1 A OR[7]~input_o $end
$var wire 1 B sel[0]~input_o $end
$var wire 1 C inst2|inst7|inst3~0_combout $end
$var wire 1 D inst2|inst7|inst3~1_combout $end
$var wire 1 E OR[6]~input_o $end
$var wire 1 F AND[6]~input_o $end
$var wire 1 G NOT[6]~input_o $end
$var wire 1 H inst2|inst8|inst3~0_combout $end
$var wire 1 I SUM[6]~input_o $end
$var wire 1 J inst2|inst8|inst3~1_combout $end
$var wire 1 K SUM[5]~input_o $end
$var wire 1 L AND[5]~input_o $end
$var wire 1 M OR[5]~input_o $end
$var wire 1 N inst2|inst5|inst3~0_combout $end
$var wire 1 O NOT[5]~input_o $end
$var wire 1 P inst2|inst5|inst3~1_combout $end
$var wire 1 Q SUM[4]~input_o $end
$var wire 1 R NOT[4]~input_o $end
$var wire 1 S AND[4]~input_o $end
$var wire 1 T inst2|inst6|inst3~0_combout $end
$var wire 1 U OR[4]~input_o $end
$var wire 1 V inst2|inst6|inst3~1_combout $end
$var wire 1 W SUM[3]~input_o $end
$var wire 1 X NOT[3]~input_o $end
$var wire 1 Y AND[3]~input_o $end
$var wire 1 Z OR[3]~input_o $end
$var wire 1 [ inst2|inst3|inst3~0_combout $end
$var wire 1 \ inst2|inst3|inst3~1_combout $end
$var wire 1 ] AND[2]~input_o $end
$var wire 1 ^ NOT[2]~input_o $end
$var wire 1 _ inst2|inst2|inst3~0_combout $end
$var wire 1 ` SUM[2]~input_o $end
$var wire 1 a OR[2]~input_o $end
$var wire 1 b inst2|inst2|inst3~1_combout $end
$var wire 1 c NOT[1]~input_o $end
$var wire 1 d SUM[1]~input_o $end
$var wire 1 e OR[1]~input_o $end
$var wire 1 f AND[1]~input_o $end
$var wire 1 g inst2|inst1|inst3~0_combout $end
$var wire 1 h inst2|inst1|inst3~1_combout $end
$var wire 1 i NOT[0]~input_o $end
$var wire 1 j AND[0]~input_o $end
$var wire 1 k inst2|inst|inst3~0_combout $end
$var wire 1 l SUM[0]~input_o $end
$var wire 1 m OR[0]~input_o $end
$var wire 1 n inst2|inst|inst3~1_combout $end
$upscope $end
$upscope $end
$enddefinitions $end
#0
$dumpvars
b0 !
b0 "
b0 #
b0 $
b0 %
0-
0,
0+
0*
0)
0(
0'
0&
x.
0/
10
x1
12
13
14
05
06
07
08
09
0:
0;
0<
0=
0>
0?
0@
0A
0B
0C
0D
0E
0F
0G
0H
0I
0J
0K
0L
0M
0N
0O
0P
0Q
0R
0S
0T
0U
0V
0W
0X
0Y
0Z
0[
0\
0]
0^
0_
0`
0a
0b
0c
0d
0e
0f
0g
0h
0i
0j
0k
0l
0m
0n
$end
#10000
b1 !
1j
0.
1k
1n
1<
1-
#20000
b11 !
b1 "
b10 !
1i
0j
1f
1.
0k
1g
0n
1h
0<
1;
0-
1,
#30000
b11 !
1j
0.
1k
1n
1<
1-
#40000
b111 !
b11 "
b1 #
b101 !
b10 "
b100 !
1m
0i
1c
0j
0f
1]
1.
0k
0g
1_
0n
0h
1b
0<
0;
1:
0-
0,
1+
#50000
b101 !
1j
0.
1k
1n
1<
1-
#60000
b111 !
b11 "
b110 !
1i
0j
1f
1.
0k
1g
0n
1h
0<
1;
0-
1,
#70000
b111 !
1j
0.
1k
1n
1<
1-
#80000
b1111 !
b111 "
b11 #
b1 %
b1011 !
b101 "
b10 #
b1001 !
b100 "
b1000 !
1l
0m
1e
0i
0c
1^
0j
0f
0]
1Y
1.
0g
0k
0_
1[
0h
0n
0b
1\
0;
0<
0:
19
0,
0-
0+
1*
#90000
b1001 !
1j
0.
1k
1n
1<
1-
#100000
b1011 !
b101 "
b1010 !
1i
0j
1f
1.
0k
1g
0n
1h
0<
1;
0-
1,
#110000
b1011 !
1j
0.
1k
1n
1<
1-
#120000
b1111 !
b111 "
b11 #
b1101 !
b110 "
b1100 !
1m
0i
1c
0j
0f
1]
1.
0k
0g
1_
0n
0h
1b
0<
0;
1:
0-
0,
1+
#130000
b1101 !
1j
0.
1k
1n
1<
1-
#140000
b1111 !
b111 "
b1110 !
1i
0j
1f
1.
0k
1g
0n
1h
0<
1;
0-
1,
#150000
b1111 !
1j
0.
1k
1n
1<
1-
#160000
b11111 !
b1111 "
b111 #
b11 %
b1 $
b10111 !
b1011 "
b101 #
b10 %
b10011 !
b1001 "
b100 #
b10001 !
b1000 "
b10000 !
1B
0l
1d
0m
0e
1a
0i
0c
0^
1X
0j
0f
0]
0Y
1S
1.
0k
0g
0_
0[
0n
0b
0<
0:
0-
0+
0h
1b
0\
0;
1:
09
0,
1+
0*
#170000
b10001 !
1j
0.
#180000
b10011 !
b1001 "
b10010 !
1i
0j
1f
1.
#190000
b10011 !
1j
0.
#200000
b10111 !
b1011 "
b101 #
b10101 !
b1010 "
b10100 !
1m
0i
1c
0j
0f
1]
1.
1n
1<
1-
#210000
b10101 !
1j
0.
#220000
b10111 !
b1011 "
b10110 !
1i
0j
1f
1.
#230000
b10111 !
1j
0.
#240000
b11111 !
b1111 "
b111 #
b11 %
b11011 !
b1101 "
b110 #
b11001 !
b1100 "
b11000 !
1l
0m
1e
0i
0c
1^
0j
0f
0]
1Y
1.
1g
0n
0<
0-
1h
1;
1,
#250000
b11001 !
1j
0.
#260000
b11011 !
b1101 "
b11010 !
1i
0j
1f
1.
#270000
b11011 !
1j
0.
#280000
b11111 !
b1111 "
b111 #
b11101 !
b1110 "
b11100 !
1m
0i
1c
0j
0f
1]
1.
1n
1<
1-
#290000
b11101 !
1j
0.
#300000
b11111 !
b1111 "
b11110 !
1i
0j
1f
1.
#310000
b11111 !
1j
0.
#320000
b111111 !
b11111 "
b1111 #
b111 %
b11 $
b101111 !
b10111 "
b1011 #
b101 %
b10 $
b100111 !
b10011 "
b1001 #
b100 %
b100011 !
b10001 "
b1000 #
b100001 !
b10000 "
b100000 !
0B
1>
0l
0d
1`
0m
0e
0a
1Z
0i
0c
0^
0X
1R
0j
0f
0]
0Y
0S
1L
1.
0g
1T
0n
0b
0h
0<
0:
0;
0-
0+
0,
1V
18
1)
#330000
b100001 !
1j
0.
#340000
b100011 !
b10001 "
b100010 !
1i
0j
1f
1.
1k
1n
1<
1-
#350000
b100011 !
1j
0.
#360000
b100111 !
b10011 "
b1001 #
b100101 !
b10010 "
b100100 !
1m
0i
1c
0j
0f
1]
1.
0k
1h
1;
1,
0n
0<
0-
#370000
b100101 !
1j
0.
#380000
b100111 !
b10011 "
b100110 !
1i
0j
1f
1.
1k
1n
1<
1-
#390000
b100111 !
1j
0.
#400000
b101111 !
b10111 "
b1011 #
b101 %
b101011 !
b10101 "
b1010 #
b101001 !
b10100 "
b101000 !
1l
0m
1e
0i
0c
1^
0j
0f
0]
1Y
1.
0k
1_
0h
0;
0,
0n
1b
0<
1:
0-
1+
#410000
b101001 !
1j
0.
#420000
b101011 !
b10101 "
b101010 !
1i
0j
1f
1.
1k
1n
1<
1-
#430000
b101011 !
1j
0.
#440000
b101111 !
b10111 "
b1011 #
b101101 !
b10110 "
b101100 !
1m
0i
1c
0j
0f
1]
1.
0k
1h
1;
1,
0n
0<
0-
#450000
b101101 !
1j
0.
#460000
b101111 !
b10111 "
b101110 !
1i
0j
1f
1.
1k
1n
1<
1-
#470000
b101111 !
1j
0.
#480000
b111111 !
b11111 "
b1111 #
b111 %
b11 $
b110111 !
b11011 "
b1101 #
b110 %
b110011 !
b11001 "
b1100 #
b110001 !
b11000 "
b110000 !
1B
0l
1d
0m
0e
1a
0i
0c
0^
1X
0j
0f
0]
0Y
1S
1.
1g
1[
1N
1H
1C
0n
0V
0h
1\
0<
08
0;
19
0-
0)
0,
1*
1h
0\
1;
09
1,
0*
#490000
b110001 !
1j
0.
#500000
b110011 !
b11001 "
b110010 !
1i
0j
1f
1.
#510000
b110011 !
1j
0.
#520000
b110111 !
b11011 "
b1101 #
b110101 !
b11010 "
b110100 !
1m
0i
1c
0j
0f
1]
1.
#530000
b110101 !
1j
0.
#540000
b110111 !
b11011 "
b110110 !
1i
0j
1f
1.
#550000
b110111 !
1j
0.
#560000
b111111 !
b11111 "
b1111 #
b111 %
b111011 !
b11101 "
b1110 #
b111001 !
b11100 "
b111000 !
1l
0m
1e
0i
0c
1^
0j
0f
0]
1Y
1.
1n
1<
1-
#570000
b111001 !
1j
0.
#580000
b111011 !
b11101 "
b111010 !
1i
0j
1f
1.
#590000
b111011 !
1j
0.
#600000
b111111 !
b11111 "
b1111 #
b111101 !
b11110 "
b111100 !
1m
0i
1c
0j
0f
1]
1.
#610000
b111101 !
1j
0.
#620000
b111111 !
b11111 "
b111110 !
1i
0j
1f
1.
#630000
b111111 !
1j
0.
#640000
b1111111 !
b111111 "
b11111 #
b1111 %
b1011111 !
b101111 "
b10111 #
b1011 %
b1 $
b1001111 !
b100111 "
b10011 #
b1001 %
b0 $
b1000111 !
b100011 "
b10001 #
b1000 %
b1000011 !
b100001 "
b10000 #
b1000001 !
b100000 "
b1000000 !
0B
0>
0l
0d
0`
1W
0m
0e
0a
0Z
1U
0i
0c
0^
0X
0R
1O
0j
0f
0]
0Y
0S
0L
1F
1.
0k
0g
0_
0[
0T
0N
0C
1V
1J
1\
1P
1D
18
16
19
17
15
1)
1'
1*
1(
1&
0n
0h
0b
0\
0V
0P
0D
0<
0;
0:
09
08
07
05
0-
0,
0+
0*
0)
0(
0&
#650000
b1000001 !
1j
0.
1k
1n
1<
1-
#660000
b1000011 !
b100001 "
b1000010 !
1i
0j
1f
1.
0k
1g
0n
1h
0<
1;
0-
1,
#670000
b1000011 !
1j
0.
1k
1n
1<
1-
#680000
b1000111 !
b100011 "
b10001 #
b1000101 !
b100010 "
b1000100 !
1m
0i
1c
0j
0f
1]
1.
0k
0g
1_
0n
0h
1b
0<
0;
1:
0-
0,
1+
#690000
b1000101 !
1j
0.
1k
1n
1<
1-
#700000
b1000111 !
b100011 "
b1000110 !
1i
0j
1f
1.
0k
1g
0n
1h
0<
1;
0-
1,
#710000
b1000111 !
1j
0.
1k
1n
1<
1-
#720000
b1001111 !
b100111 "
b10011 #
b1001 %
b1001011 !
b100101 "
b10010 #
b1001001 !
b100100 "
b1001000 !
1l
0m
1e
0i
0c
1^
0j
0f
0]
1Y
1.
0g
0k
0_
1[
0h
0n
0b
1\
0;
0<
0:
19
0,
0-
0+
1*
#730000
b1001001 !
1j
0.
1k
1n
1<
1-
#740000
b1001011 !
b100101 "
b1001010 !
1i
0j
1f
1.
0k
1g
0n
1h
0<
1;
0-
1,
#750000
b1001011 !
1j
0.
1k
1n
1<
1-
#760000
b1001111 !
b100111 "
b10011 #
b1001101 !
b100110 "
b1001100 !
1m
0i
1c
0j
0f
1]
1.
0k
0g
1_
0n
0h
1b
0<
0;
1:
0-
0,
1+
#770000
b1001101 !
1j
0.
1k
1n
1<
1-
#780000
b1001111 !
b100111 "
b1001110 !
1i
0j
1f
1.
0k
1g
0n
1h
0<
1;
0-
1,
#790000
b1001111 !
1j
0.
1k
1n
1<
1-
#800000
b1011111 !
b101111 "
b10111 #
b1011 %
b1 $
b1010111 !
b101011 "
b10101 #
b1010 %
b1010011 !
b101001 "
b10100 #
b1010001 !
b101000 "
b1010000 !
1B
0l
1d
0m
0e
1a
0i
0c
0^
1X
0j
0f
0]
0Y
1S
1.
0k
0g
0_
0[
0H
0n
0b
1V
0J
0<
0:
18
06
0-
0+
1)
0'
0h
1b
0\
0;
1:
09
0,
1+
0*
#810000
b1010001 !
1j
0.
#820000
b1010011 !
b101001 "
b1010010 !
1i
0j
1f
1.
#830000
b1010011 !
1j
0.
#840000
b1010111 !
b101011 "
b10101 #
b1010101 !
b101010 "
b1010100 !
1m
0i
1c
0j
0f
1]
1.
1n
1<
1-
#850000
b1010101 !
1j
0.
#860000
b1010111 !
b101011 "
b1010110 !
1i
0j
1f
1.
#870000
b1010111 !
1j
0.
#880000
b1011111 !
b101111 "
b10111 #
b1011 %
b1011011 !
b101101 "
b10110 #
b1011001 !
b101100 "
b1011000 !
1l
0m
1e
0i
0c
1^
0j
0f
0]
1Y
1.
1g
0n
0<
0-
1h
1;
1,
#890000
b1011001 !
1j
0.
#900000
b1011011 !
b101101 "
b1011010 !
1i
0j
1f
1.
#910000
b1011011 !
1j
0.
#920000
b1011111 !
b101111 "
b10111 #
b1011101 !
b101110 "
b1011100 !
1m
0i
1c
0j
0f
1]
1.
1n
1<
1-
#930000
b1011101 !
1j
0.
#940000
b1011111 !
b101111 "
b1011110 !
1i
0j
1f
1.
#950000
b1011111 !
1j
0.
#960000
b1111111 !
b111111 "
b11111 #
b1111 %
b11 $
b1101111 !
b110111 "
b11011 #
b1101 %
b10 $
b1100111 !
b110011 "
b11001 #
b1100 %
b1100011 !
b110001 "
b11000 #
b1100001 !
b110000 "
b1100000 !
0B
1>
0l
0d
1`
0m
0e
0a
1Z
0i
0c
0^
0X
1R
0j
0f
0]
0Y
0S
1L
1.
0g
1T
0n
0b
0V
0h
1P
0<
0:
08
0;
17
0-
0+
0)
0,
1(
1V
18
1)
#970000
b1100001 !
1j
0.
#980000
b1100011 !
b110001 "
b1100010 !
1i
0j
1f
1.
1k
1n
1<
1-
#990000
b1100011 !
1j
0.
