simulation/qsim/pc.msim.vcd
$comment
	File created using the following command:
		vcd file pc.msim.vcd -direction
$end
$date
	Fri Apr 20 21:13:08 2018
$end
$version
	ModelSim Version 10.1d
$end
$timescale
	1ps
$end
$scope module pc_vlg_vec_tst $end
$var reg 1 ! clk $end
$var reg 1 " rst $end
$var wire 1 # q [7] $end
$var wire 1 $ q [6] $end
$var wire 1 % q [5] $end
$var wire 1 & q [4] $end
$var wire 1 ' q [3] $end
$var wire 1 ( q [2] $end
$var wire 1 ) q [1] $end
$var wire 1 * q [0] $end
$var wire 1 + s5 $end
$var wire 1 , sampler $end
$scope module i1 $end
$var wire 1 - gnd $end
$var wire 1 . vcc $end
$var wire 1 / unknown $end
$var tri1 1 0 devclrn $end
$var tri1 1 1 devpor $end
$var tri1 1 2 devoe $end
$var wire 1 3 s5~output_o $end
$var wire 1 4 q[7]~output_o $end
$var wire 1 5 q[6]~output_o $end
$var wire 1 6 q[5]~output_o $end
$var wire 1 7 q[4]~output_o $end
$var wire 1 8 q[3]~output_o $end
$var wire 1 9 q[2]~output_o $end
$var wire 1 : q[1]~output_o $end
$var wire 1 ; q[0]~output_o $end
$var wire 1 < clk~input_o $end
$var wire 1 = clk~inputclkctrl_outclk $end
$var wire 1 > inst|inst~0_combout $end
$var wire 1 ? rst~input_o $end
$var wire 1 @ rst~inputclkctrl_outclk $end
$var wire 1 A inst|inst~q $end
$var wire 1 B inst|inst11~0_combout $end
$var wire 1 C inst|inst11~q $end
$var wire 1 D inst|inst16~0_combout $end
$var wire 1 E inst|inst16~q $end
$var wire 1 F inst|inst20~0_combout $end
$var wire 1 G inst|inst20~q $end
$var wire 1 H inst|inst9|inst~combout $end
$var wire 1 I inst|inst22~0_combout $end
$var wire 1 J inst|inst22~q $end
$var wire 1 K inst|inst24~0_combout $end
$var wire 1 L inst|inst24~q $end
$var wire 1 M inst|inst26~0_combout $end
$var wire 1 N inst|inst26~q $end
$var wire 1 O inst|inst28~0_combout $end
$var wire 1 P inst|inst28~1_combout $end
$var wire 1 Q inst|inst28~q $end
$upscope $end
$upscope $end
$enddefinitions $end
#0
$dumpvars
0!
0"
0*
0)
0(
0'
0&
0%
0$
0#
0+
x,
0-
1.
x/
10
11
12
03
04
05
06
07
08
09
0:
0;
0<
0=
1>
0?
0@
0A
0B
0C
0D
0E
0F
0G
0H
0I
0J
0K
0L
0M
0N
1O
0P
0Q
$end
#20000
1!
1<
1=
0,
#40000
0!
0<
0=
1,
#60000
1!
1<
1=
0,
#80000
0!
0<
0=
1,
#100000
1!
1<
1=
0,
#110000
1"
1?
1@
1,
#120000
0!
0<
0=
0,
#140000
1!
1<
1=
1,
1A
1B
0>
1;
1*
#160000
0!
0<
0=
0,
#180000
1!
1<
1=
1,
1C
0A
1>
1:
0;
1)
0*
#200000
0!
0<
0=
0,
#220000
1!
1<
1=
1,
1A
1D
0B
0>
1;
1*
#240000
0!
0<
0=
0,
#260000
1!
1<
1=
1,
1E
0C
0A
1>
19
0:
0;
1(
0)
0*
#280000
0!
0<
0=
0,
#300000
1!
1<
1=
1,
1A
1B
0>
1;
1*
#320000
0!
0<
0=
0,
#340000
1!
1<
1=
1,
1C
0A
1>
1:
0;
1)
0*
#360000
0!
0<
0=
0,
#380000
1!
1<
1=
1,
1A
1F
0D
0B
0>
1;
1*
#400000
0!
0<
0=
0,
#420000
1!
1<
1=
1,
1G
0E
0C
0A
1>
18
09
0:
0;
1'
0(
0)
0*
#440000
0!
0<
0=
0,
#460000
1!
1<
1=
1,
1A
1B
0>
1;
1*
#480000
0!
0<
0=
0,
#500000
1!
1<
1=
1,
1C
0A
1>
1:
0;
1)
0*
#520000
0!
0<
0=
0,
#540000
1!
1<
1=
1,
1A
1D
0B
0>
1;
1*
#560000
0!
0<
0=
0,
#580000
1!
1<
1=
1,
1E
0C
0A
1>
19
0:
0;
1(
0)
0*
#600000
0!
0<
0=
0,
#620000
1!
1<
1=
1,
1A
1B
0>
1;
1*
#640000
0!
0<
0=
0,
#660000
1!
1<
1=
1,
1C
0A
1>
1:
0;
1)
0*
#680000
0!
0<
0=
0,
#700000
1!
1<
1=
1,
1A
1H
0F
0D
0B
0>
1;
1*
1I
#720000
0!
0<
0=
0,
#740000
1!
1<
1=
1,
1J
0G
0E
0C
0A
1K
0I
0H
1>
17
08
09
0:
0;
1&
0'
0(
0)
0*
0K
1I
#760000
0!
0<
0=
0,
#780000
1!
1<
1=
1,
1A
1B
0>
1;
1*
#800000
0!
0<
0=
0,
#820000
1!
1<
1=
1,
1C
0A
1>
1:
0;
1)
0*
#840000
0!
0<
0=
0,
#860000
1!
1<
1=
1,
1A
1D
0B
0>
1;
1*
#880000
0!
0<
0=
0,
#900000
1!
1<
1=
1,
1E
0C
0A
1>
19
0:
0;
1(
0)
0*
#920000
0!
0<
0=
0,
#940000
1!
1<
1=
1,
1A
1B
0>
1;
1*
#960000
0!
0<
0=
0,
#980000
1!
1<
1=
1,
1C
0A
1>
1:
0;
1)
0*
