simulation/qsim/pc.msim.vcd
$comment
	File created using the following command:
		vcd file pc.msim.vcd -direction
$end
$date
	Fri Apr 20 23:21:07 2018
$end
$version
	ModelSim Version 10.1d
$end
$timescale
	1ps
$end
$scope module pc_vlg_vec_tst $end
$var reg 1 ! clk $end
$var reg 8 " load [7:0] $end
$var reg 1 # rst $end
$var reg 2 $ s [1:0] $end
$var wire 1 % q [7] $end
$var wire 1 & q [6] $end
$var wire 1 ' q [5] $end
$var wire 1 ( q [4] $end
$var wire 1 ) q [3] $end
$var wire 1 * q [2] $end
$var wire 1 + q [1] $end
$var wire 1 , q [0] $end
$var wire 1 - sAND5 $end
$var wire 1 . sOR5 $end
$var wire 1 / sampler $end
$scope module i1 $end
$var wire 1 0 gnd $end
$var wire 1 1 vcc $end
$var wire 1 2 unknown $end
$var tri1 1 3 devclrn $end
$var tri1 1 4 devpor $end
$var tri1 1 5 devoe $end
$var wire 1 6 sAND5~output_o $end
$var wire 1 7 q[7]~output_o $end
$var wire 1 8 q[6]~output_o $end
$var wire 1 9 q[5]~output_o $end
$var wire 1 : q[4]~output_o $end
$var wire 1 ; q[3]~output_o $end
$var wire 1 < q[2]~output_o $end
$var wire 1 = q[1]~output_o $end
$var wire 1 > q[0]~output_o $end
$var wire 1 ? sOR5~output_o $end
$var wire 1 @ clk~input_o $end
$var wire 1 A clk~inputclkctrl_outclk $end
$var wire 1 B s[0]~input_o $end
$var wire 1 C load[4]~input_o $end
$var wire 1 D load[1]~input_o $end
$var wire 1 E load[0]~input_o $end
$var wire 1 F inst~0_combout $end
$var wire 1 G inst19|inst|inst3~0_combout $end
$var wire 1 H rst~input_o $end
$var wire 1 I rst~inputclkctrl_outclk $end
$var wire 1 J s[1]~input_o $end
$var wire 1 K inst~q $end
$var wire 1 L inst12|inst2~combout $end
$var wire 1 M inst1~0_combout $end
$var wire 1 N inst14~1_combout $end
$var wire 1 O inst1~q $end
$var wire 1 P load[3]~input_o $end
$var wire 1 Q load[2]~input_o $end
$var wire 1 R inst39|inst2~combout $end
$var wire 1 S inst4~0_combout $end
$var wire 1 T inst37|inst2~combout $end
$var wire 1 U inst4~q $end
$var wire 1 V inst45|inst2~combout $end
$var wire 1 W inst8~0_combout $end
$var wire 1 X inst43|inst2~combout $end
$var wire 1 Y inst8~q $end
$var wire 1 Z inst42|inst~combout $end
$var wire 1 [ inst42|inst2~combout $end
$var wire 1 \ inst7~0_combout $end
$var wire 1 ] inst40|inst~combout $end
$var wire 1 ^ inst40|inst2~combout $end
$var wire 1 _ inst7~q $end
$var wire 1 ` load[5]~input_o $end
$var wire 1 a inst49|inst2~combout $end
$var wire 1 b inst9~0_combout $end
$var wire 1 c inst47|inst2~combout $end
$var wire 1 d inst9~q $end
$var wire 1 e load[6]~input_o $end
$var wire 1 f inst57|inst2~combout $end
$var wire 1 g inst14~0_combout $end
$var wire 1 h inst55|inst2~combout $end
$var wire 1 i inst14~q $end
$var wire 1 j inst51|inst~combout $end
$var wire 1 k load[7]~input_o $end
$var wire 1 l inst53|inst~combout $end
$var wire 1 m inst53|inst2~combout $end
$var wire 1 n inst13~0_combout $end
$var wire 1 o inst51|inst2~0_combout $end
$var wire 1 p inst51|inst2~combout $end
$var wire 1 q inst13~q $end
$upscope $end
$upscope $end
$enddefinitions $end
#0
$dumpvars
1!
b10011000 "
0#
b1 $
0,
0+
0*
0)
0(
0'
0&
0%
0-
0.
x/
00
11
x2
13
14
15
06
07
08
09
0:
0;
0<
0=
0>
0?
1@
1A
1B
1C
0D
0E
0F
1G
0H
0I
0J
0K
0L
0M
1N
0O
1P
0Q
0R
0S
0T
0U
0V
1W
0X
0Y
0Z
0[
1\
0]
0^
0_
0`
0a
0b
0c
0d
0e
0f
0g
0h
0i
0j
1k
0l
0m
1n
1o
0p
0q
$end
#10000
0!
0@
0A
0/
#20000
1!
1@
1A
1/
#30000
0!
0@
0A
0/
#40000
b11011000 "
b11001000 "
b11001100 "
b11001110 "
b11001111 "
1!
1E
1D
1Q
0C
1e
1@
1A
1/
1F
1M
1S
0\
1g
#50000
1#
0!
1H
0@
1I
0A
0/
#60000
1!
1@
1A
1/
1K
1Z
1V
1R
1L
0G
1>
1,
1f
1a
1[
1l
1m
1?
1.
#70000
0!
0@
0A
0/
#80000
b1001111 "
b1000111 "
b1010111 "
b1010110 "
1!
0E
0P
1C
0k
1@
1A
1/
0F
0W
1\
0n
1O
0K
1G
1=
0>
1+
0,
#90000
0!
0@
0A
0/
#100000
1!
1@
1A
1/
1K
1T
0L
0G
1>
1,
#110000
0!
0@
0A
0/
#120000
b1110110 "
b110110 "
b110100 "
b10110100 "
b10110101 "
1!
1E
0D
1`
0e
1k
1@
1A
1/
1F
0M
1b
0g
1n
1U
0O
0K
1G
1<
0=
0>
1*
0+
0,
#130000
0!
0@
0A
0/
#140000
1!
1@
1A
1/
1K
0R
1L
0G
1>
1,
#150000
0!
0@
0A
0/
#160000
b10110001 "
b10100001 "
b10000001 "
b1 "
b0 "
1!
0E
0Q
0C
0`
0k
1@
1A
1/
0F
0S
0\
0b
0n
1O
0K
1G
1=
0>
1+
0,
#170000
0!
0@
0A
0/
#180000
1!
1@
1A
1/
1K
1X
0T
0L
0G
1>
1,
#190000
0!
0@
0A
0/
#200000
b1000 "
b1001000 "
b1001010 "
b1001110 "
b1011110 "
b1111110 "
1!
1D
1Q
1P
1C
1`
1e
1@
1A
1/
1M
1S
1W
1\
1b
1g
1Y
0U
0O
0K
1G
1;
0<
0=
0>
1)
0*
0+
0,
#210000
0!
0@
0A
0/
#220000
1!
1@
1A
1/
1K
0V
1R
1L
0G
1>
1,
#230000
0!
0@
0A
0/
#240000
b11111110 "
b10111110 "
1!
0e
1k
1@
1A
1/
0g
1n
1O
0K
1G
1=
0>
1+
0,
#250000
0!
0@
0A
0/
#260000
1!
1@
1A
1/
1K
1T
0L
0G
1>
1,
#270000
0!
0@
0A
0/
#280000
b10111111 "
b10111011 "
b10011011 "
1!
1E
0Q
0`
1@
1A
1/
1F
0S
0b
1U
0O
0K
1G
1<
0=
0>
1*
0+
0,
#290000
0!
0@
0A
0/
#300000
1!
1@
1A
1/
1K
0R
1L
0G
1>
1,
#310000
0!
0@
0A
0/
#320000
b11011011 "
b11011010 "
b11111010 "
1!
0E
1`
1e
1@
1A
1/
0F
1b
1g
1O
0K
1G
1=
0>
1+
0,
#330000
0!
0@
0A
0/
#340000
1!
1@
1A
1/
1K
1]
0X
0T
0L
0G
1>
1,
1^
#350000
0!
0@
0A
0/
#360000
b10111010 "
b10111011 "
1!
1E
0e
1@
1A
1/
1F
0g
1_
0Y
0U
0O
0K
1c
0^
0[
0]
0Z
1G
1:
0;
0<
0=
0>
1(
0)
0*
0+
0,
0c
1^
1[
#370000
0!
0@
0A
0/
#380000
1!
1@
1A
1/
1K
1Z
1V
1R
1L
0G
1>
1,
0[
#390000
0!
0@
0A
0/
#400000
b10110011 "
b10110001 "
b10100001 "
b10000001 "
b10000000 "
1!
0E
0D
0P
0C
0`
1@
1A
1/
0F
0M
0W
0\
0b
1O
0K
1G
1=
0>
1+
0,
#410000
0!
0@
0A
0/
#420000
1!
1@
1A
1/
1K
1T
0L
0G
1>
1,
#430000
b11 $
b10 $
0!
0B
1J
0@
0A
0/
0n
1\
1M
1G
#440000
b11000000 "
b11000010 "
b11010010 "
b11110010 "
b11110011 "
1!
1E
1D
1C
1`
1e
1@
1A
1/
0K
0T
1L
0G
1F
0>
0,
0M
#450000
0!
0@
0A
0/
#460000
1!
1@
1A
1/
0O
1K
1G
0F
0=
1>
0+
1,
#470000
0!
0@
0A
0/
#480000
b11110111 "
b10110111 "
b10110101 "
b10100101 "
b10000101 "
1!
0D
1Q
0C
0`
0e
1@
1A
1/
0K
0Z
0V
0R
0L
0G
1F
0>
0,
1[
1W
1S
1M
0\
#490000
0!
0@
0A
0/
#500000
1!
1@
1A
1/
0_
1Y
1U
1O
1K
0f
0a
0^
0[
1]
1Z
1G
0F
0:
1;
1<
1=
1>
0(
1)
1*
1+
1,
0l
1g
1b
1\
1^
1f
1a
1[
0m
0?
0.
1l
0g
0b
0\
1n
1m
1?
1.
0n
#510000
0!
0@
0A
0/
#520000
b10001101 "
b11001101 "
1!
1P
1e
1@
1A
1/
0K
0]
1X
1T
1L
0G
1F
0>
0,
0^
0M
#530000
0!
0@
0A
0/
#540000
1!
1@
1A
1/
0O
1K
1G
0F
0=
1>
0+
1,
#550000
0!
0@
0A
0/
#560000
b1001101 "
b1001001 "
b1001011 "
b1000011 "
1!
1D
0Q
0P
0k
1@
1A
1/
0K
1R
0L
0G
1F
0>
0,
0S
1M
#570000
0!
0@
0A
0/
#580000
1!
1@
1A
1/
0U
1O
1K
1G
0F
0<
1=
1>
0*
1+
1,
#590000
0!
0@
0A
0/
#600000
b1000010 "
b1010010 "
b11010010 "
b11010000 "
1!
0E
0D
1C
1k
1@
1A
1/
0K
0T
1L
0G
1F
0>
0,
0M
#610000
0!
0@
0A
0/
#620000
1!
1@
1A
1/
0O
1K
1G
0F
0=
1>
0+
1,
#630000
b0 $
0!
0J
0@
0A
0/
0N
#640000
b11110000 "
b11110100 "
b11111100 "
b11111101 "
1!
1E
1Q
1P
1`
1@
1A
1/
#650000
0!
0@
0A
0/
#660000
1!
1@
1A
1/
#670000
0!
0@
0A
0/
#680000
b10111101 "
b10101101 "
b10101111 "
b10001111 "
b10000111 "
b10000110 "
1!
0E
1D
0P
0C
0`
0e
1@
1A
1/
#690000
0!
0@
0A
0/
#700000
1!
1@
1A
1/
#710000
0!
0@
0A
0/
#720000
b110 "
b10 "
b1000010 "
1!
0Q
1e
0k
1@
1A
1/
#730000
0!
0@
0A
0/
#740000
1!
1@
1A
1/
#750000
0!
0@
0A
0/
#760000
b1010010 "
b1010000 "
b11010000 "
b10010000 "
1!
0D
1C
0e
1k
1@
1A
1/
#770000
0!
0@
0A
0/
#780000
1!
1@
1A
1/
#790000
0!
0@
0A
0/
#800000
b10110000 "
b10110100 "
b10100100 "
1!
1Q
0C
1`
1@
1A
1/
#810000
0!
0@
0A
0/
#820000
1!
1@
1A
1/
#830000
0!
0@
0A
0/
#840000
b10101100 "
b10101101 "
b10001101 "
b10011101 "
1!
1E
1P
1C
0`
1@
1A
1/
#850000
b1 $
b11 $
0!
1B
1J
0@
0A
0/
1n
1\
1S
1N
0G
1F
#860000
1!
1@
1A
1/
1q
1_
1U
1p
0m
1^
0[
1T
0R
17
1:
1<
1%
1(
1*
#870000
0!
0@
0A
0/
#880000
b10011111 "
b11111 "
b1011111 "
b1011110 "
b1001110 "
1!
0E
1D
0C
1e
0k
1@
1A
1/
0F
1M
0\
1g
0n
#890000
0!
0@
0A
0/
#900000
1!
1@
1A
1/
0q
1i
0_
1O
0K
0p
1m
1h
0f
0^
1[
1G
07
18
0:
1=
0>
0%
1&
0(
1+
0,
#910000
0!
0@
0A
0/
#920000
b1001010 "
b1001000 "
b11001000 "
b10001000 "
b10001001 "
b10011001 "
1!
1E
0D
0Q
1C
0e
1k
1@
1A
1/
1F
0M
0S
1\
0g
1n
#930000
0!
0@
0A
0/
#940000
1!
1@
1A
1/
1q
0i
1_
0U
0O
1K
1p
0m
0h
1f
1^
0[
0T
1R
0G
17
08
1:
0<
0=
1>
1%
0&
1(
0*
0+
1,
#950000
0!
0@
0A
0/
#960000
b10010001 "
b10010101 "
b10010111 "
b10111 "
b1010111 "
1!
1D
1Q
0P
1e
0k
1@
1A
1/
1M
1S
0W
1g
0n
#970000
0!
0@
0A
0/
#980000
1!
1@
1A
1/
0q
1i
0Y
1U
1O
0p
1m
1h
0f
1V
0R
0L
07
18
0;
1<
1=
0%
1&
0)
1*
1+
#990000
b1 $
0!
0J
0@
0A
0/
