simulation/qsim/pc_up.msim.vcd
$comment
	File created using the following command:
		vcd file pc_up.msim.vcd -direction
$end
$date
	Fri Apr 20 20:52:55 2018
$end
$version
	ModelSim Version 10.1d
$end
$timescale
	1ps
$end
$scope module pc_up_vlg_vec_tst $end
$var reg 8 ! q [7:0] $end
$var wire 1 " saida [7] $end
$var wire 1 # saida [6] $end
$var wire 1 $ saida [5] $end
$var wire 1 % saida [4] $end
$var wire 1 & saida [3] $end
$var wire 1 ' saida [2] $end
$var wire 1 ( saida [1] $end
$var wire 1 ) saida [0] $end
$var wire 1 * sampler $end
$scope module i1 $end
$var wire 1 + gnd $end
$var wire 1 , vcc $end
$var wire 1 - unknown $end
$var tri1 1 . devclrn $end
$var tri1 1 / devpor $end
$var tri1 1 0 devoe $end
$var wire 1 1 saida[7]~output_o $end
$var wire 1 2 saida[6]~output_o $end
$var wire 1 3 saida[5]~output_o $end
$var wire 1 4 saida[4]~output_o $end
$var wire 1 5 saida[3]~output_o $end
$var wire 1 6 saida[2]~output_o $end
$var wire 1 7 saida[1]~output_o $end
$var wire 1 8 saida[0]~output_o $end
$var wire 1 9 q[6]~input_o $end
$var wire 1 : q[4]~input_o $end
$var wire 1 ; q[5]~input_o $end
$var wire 1 < q[0]~input_o $end
$var wire 1 = q[2]~input_o $end
$var wire 1 > q[1]~input_o $end
$var wire 1 ? q[3]~input_o $end
$var wire 1 @ inst9|inst~combout $end
$var wire 1 A inst15|inst~combout $end
$var wire 1 B q[7]~input_o $end
$var wire 1 C inst15|inst2~combout $end
$var wire 1 D inst14|inst2~combout $end
$var wire 1 E inst13|inst2~combout $end
$var wire 1 F inst9|inst2~combout $end
$var wire 1 G inst8|inst2~combout $end
$var wire 1 H inst7|inst2~combout $end
$var wire 1 I inst4|inst2~combout $end
$upscope $end
$upscope $end
$enddefinitions $end
#0
$dumpvars
b111011 !
0)
0(
1'
1&
1%
1$
0#
0"
x*
0+
1,
x-
1.
1/
10
01
02
13
14
15
16
07
08
09
1:
1;
1<
0=
1>
1?
0@
0A
0B
0C
0D
1E
1F
1G
1H
0I
$end
#30000
b10111011 !
b11111011 !
b11011011 !
0;
19
1B
0*
0E
1D
1C
03
12
11
0$
1#
1"
#60000
b11011001 !
b1011001 !
b1111001 !
0>
1;
0B
1*
1I
0H
1E
0C
17
06
13
01
1(
0'
1$
0"
#90000
b1110001 !
b1110000 !
b1010000 !
0<
0?
0;
0*
18
1)
0I
0G
0E
07
05
03
0(
0&
0$
#120000
b1000000 !
b1000100 !
b100 !
b10000100 !
b10001100 !
b10001101 !
b10101101 !
1<
1=
1?
0:
1;
09
1B
1*
08
0)
1I
1H
1G
0F
1E
0D
1C
17
16
15
04
13
02
11
1(
1'
1&
0%
1$
0#
1"
#150000
b10111101 !
b11111101 !
b1111101 !
b1110101 !
b1010101 !
0?
1:
0;
19
0B
0*
0G
1F
0E
1D
0C
05
14
03
12
01
0&
1%
0$
1#
0"
#180000
b1010111 !
b1010011 !
b1011011 !
1>
0=
1?
1*
0I
1G
07
15
0(
1&
#210000
b1011010 !
b1111010 !
b1110010 !
0<
0?
1;
0*
18
1)
1I
0H
0G
1E
17
06
05
13
1(
0'
0&
1$
#240000
b1100010 !
b11100010 !
b11100000 !
b11100001 !
b11000001 !
b11001001 !
1<
0>
1?
0:
0;
1B
1*
08
0)
1G
0F
0E
1C
15
04
03
11
1&
0%
0$
1"
#270000
b1001001 !
b1101001 !
1;
0B
0*
1E
0C
13
01
1$
0"
#300000
b1101011 !
b1101010 !
b1100010 !
0<
1>
0?
1*
18
1)
0G
05
0&
#330000
b1100110 !
b11100110 !
b11000110 !
b11001110 !
1=
1?
0;
1B
0*
1H
1G
0E
1C
16
15
03
11
1'
1&
0$
1"
#360000
b11001010 !
b1001010 !
b1101010 !
b1100010 !
0=
0?
1;
0B
1*
0H
0G
1E
0C
06
05
13
01
0'
0&
1$
0"
#390000
b1100011 !
b1100111 !
1<
1=
0*
08
0)
0I
1G
07
15
0(
1&
#420000
b100111 !
b100101 !
b10100101 !
b10000101 !
b10001101 !
b10001100 !
b10001000 !
0<
0>
0=
1?
0;
09
1B
1*
18
1)
0E
0D
1C
03
02
11
0$
0#
1"
#450000
b10011000 !
b10011010 !
1>
1:
0*
1I
1F
17
14
1(
1%
#480000
b11011010 !
b11111010 !
b11111110 !
b11101110 !
1=
0:
1;
19
1*
1H
0F
1E
1D
16
04
13
12
1'
0%
1$
1#
#510000
b1101110 !
b101110 !
b1110 !
b1010 !
0=
0;
09
0B
0*
0H
0E
0D
0C
06
03
02
01
0'
0$
0#
0"
#540000
b10001010 !
b11001010 !
19
1B
1*
1D
1C
12
11
1#
1"
#570000
b11000010 !
b11000000 !
b11010000 !
b11110000 !
b11110100 !
b1110100 !
b110100 !
0>
1=
0?
1:
1;
09
0B
0*
0I
1H
0G
1F
1E
0D
0C
07
16
05
14
13
02
01
0(
1'
0&
1%
1$
0#
0"
#600000
b110101 !
b111101 !
b10111101 !
b11111101 !
1<
1?
19
1B
1*
08
0)
1I
1G
1D
1C
17
15
12
11
1(
1&
1#
1"
#630000
b11111100 !
b10111100 !
0<
09
0*
18
1)
0I
0D
07
02
0(
0#
#660000
b10101100 !
b10001100 !
b1100 !
b1101 !
1<
0:
0;
0B
1*
08
0)
1I
0F
0E
0C
17
04
03
01
1(
0%
0$
0"
#690000
b1111 !
b1011 !
b1001011 !
b1011011 !
1>
0=
1:
19
0*
0I
1F
1D
07
14
12
0(
1%
1#
#720000
b11011011 !
b11011010 !
b11001010 !
0<
0:
1B
1*
18
1)
1I
0H
0F
1C
17
06
04
11
1(
0'
0%
1"
#750000
b11101010 !
b11101110 !
b10101110 !
b10101111 !
1<
1=
1;
09
0*
1@
08
0)
0I
0G
1E
0D
07
05
13
02
0(
0&
1$
0#
1F
14
1%
#780000
b10101011 !
b11101011 !
0=
19
1*
0@
1H
1G
1D
16
15
12
1'
1&
1#
0F
04
0%
#810000
b11100011 !
b11100001 !
b1100001 !
b1100000 !
b1100100 !
b100100 !
0<
0>
1=
0?
09
0B
0*
18
1)
0G
0D
0C
05
02
01
0&
0#
0"
#840000
b110100 !
b110110 !
b10110110 !
b10110010 !
b11110010 !
1>
0=
1:
19
1B
1*
1I
0H
1F
1D
1C
17
06
14
12
11
1(
0'
1%
1#
1"
#870000
b11110011 !
b11100011 !
b11100001 !
b1100001 !
b100001 !
1<
0>
0:
09
0B
0*
08
0)
0F
0D
0C
04
02
01
0%
0#
0"
#900000
b1 !
b101 !
b100 !
b10100 !
b10110 !
b10010110 !
0<
1>
1=
1:
0;
1B
1*
18
1)
1H
1F
0E
1C
16
14
03
11
1'
1%
0$
1"
#930000
b10011110 !
b10111110 !
b10111010 !
b10111011 !
b10101011 !
1<
0=
1?
0:
1;
0*
08
0)
0I
1G
0F
1E
07
15
04
13
0(
1&
0%
1$
#960000
b11101011 !
b11101001 !
b11101101 !
b11101100 !
b11111100 !
0<
0>
1=
1:
19
1*
18
1)
1F
1D
14
12
1%
1#
#990000
b11110100 !
b10110100 !
b10110110 !
1>
0?
09
0*
1I
0G
0D
17
05
02
1(
0&
0#
