simulation/qsim/pcup.msim.vcd
$comment
	File created using the following command:
		vcd file pcup.msim.vcd -direction
$end
$date
	Fri Apr 20 20:13:12 2018
$end
$version
	ModelSim Version 10.1d
$end
$timescale
	1ps
$end
$scope module pcup_vlg_vec_tst $end
$var reg 1 ! clk $end
$var reg 1 " rst $end
$var wire 1 # q [7] $end
$var wire 1 $ q [6] $end
$var wire 1 % q [5] $end
$var wire 1 & q [4] $end
$var wire 1 ' q [3] $end
$var wire 1 ( q [2] $end
$var wire 1 ) q [1] $end
$var wire 1 * q [0] $end
$var wire 1 + s5 $end
$var wire 1 , sampler $end
$scope module i1 $end
$var wire 1 - gnd $end
$var wire 1 . vcc $end
$var wire 1 / unknown $end
$var tri1 1 0 devclrn $end
$var tri1 1 1 devpor $end
$var tri1 1 2 devoe $end
$var wire 1 3 s5~output_o $end
$var wire 1 4 q[7]~output_o $end
$var wire 1 5 q[6]~output_o $end
$var wire 1 6 q[5]~output_o $end
$var wire 1 7 q[4]~output_o $end
$var wire 1 8 q[3]~output_o $end
$var wire 1 9 q[2]~output_o $end
$var wire 1 : q[1]~output_o $end
$var wire 1 ; q[0]~output_o $end
$var wire 1 < clk~input_o $end
$var wire 1 = clk~inputclkctrl_outclk $end
$var wire 1 > inst~0_combout $end
$var wire 1 ? rst~input_o $end
$var wire 1 @ rst~inputclkctrl_outclk $end
$var wire 1 A inst~q $end
$var wire 1 B inst11~0_combout $end
$var wire 1 C inst11~q $end
$var wire 1 D inst16~0_combout $end
$var wire 1 E inst16~q $end
$var wire 1 F inst20~0_combout $end
$var wire 1 G inst20~q $end
$var wire 1 H inst9|inst~combout $end
$var wire 1 I inst22~0_combout $end
$var wire 1 J inst22~q $end
$var wire 1 K inst24~0_combout $end
$var wire 1 L inst24~q $end
$var wire 1 M inst26~0_combout $end
$var wire 1 N inst26~q $end
$var wire 1 O inst15|inst~combout $end
$var wire 1 P inst28~0_combout $end
$var wire 1 Q inst28~1_combout $end
$var wire 1 R inst28~q $end
$upscope $end
$upscope $end
$enddefinitions $end
#0
$dumpvars
0!
0"
0*
0)
0(
0'
0&
0%
0$
0#
0+
x,
0-
1.
x/
10
11
12
03
04
05
06
07
08
09
0:
0;
0<
0=
1>
0?
0@
0A
0B
0C
0D
0E
0F
0G
0H
0I
0J
0K
0L
0M
0N
0O
1P
0Q
0R
$end
#5000
1!
1<
1=
0,
#10000
0!
0<
0=
1,
#15000
1!
1<
1=
0,
#20000
0!
0<
0=
1,
#25000
1!
1<
1=
0,
#30000
0!
0<
0=
1,
#35000
1!
1<
1=
0,
#40000
0!
0<
0=
1,
#45000
1!
1<
1=
0,
#50000
0!
0<
0=
1,
#55000
1!
1<
1=
0,
#60000
0!
0<
0=
1,
#65000
1!
1<
1=
0,
#70000
0!
0<
0=
1,
#75000
1!
1<
1=
0,
#80000
0!
0<
0=
1,
#85000
1!
1<
1=
0,
#90000
0!
0<
0=
1,
#95000
1!
1<
1=
0,
#100000
0!
0<
0=
1,
#105000
1!
1<
1=
0,
#110000
0!
0<
0=
1,
#115000
1!
1<
1=
0,
#120000
0!
0<
0=
1,
#125000
1!
1<
1=
0,
#130000
0!
0<
0=
1,
#135000
1!
1<
1=
0,
#140000
1"
0!
1?
0<
1@
0=
1,
#145000
1!
1<
1=
0,
1A
1B
0>
1;
1*
#150000
0!
0<
0=
1,
#155000
1!
1<
1=
0,
1C
0A
1>
1:
0;
1)
0*
#160000
0!
0<
0=
1,
#165000
1!
1<
1=
0,
1A
1D
0B
0>
1;
1*
#170000
0!
0<
0=
1,
#175000
1!
1<
1=
0,
1E
0C
0A
1>
19
0:
0;
1(
0)
0*
#180000
0!
0<
0=
1,
#185000
1!
1<
1=
0,
1A
1B
0>
1;
1*
#190000
0!
0<
0=
1,
#195000
1!
1<
1=
0,
1C
0A
1>
1:
0;
1)
0*
#200000
0!
0<
0=
1,
#205000
1!
1<
1=
0,
1A
1F
0D
0B
0>
1;
1*
#210000
0!
0<
0=
1,
#215000
1!
1<
1=
0,
1G
0E
0C
0A
1>
18
09
0:
0;
1'
0(
0)
0*
#220000
0!
0<
0=
1,
#225000
1!
1<
1=
0,
1A
1B
0>
1;
1*
#230000
0!
0<
0=
1,
#235000
1!
1<
1=
0,
1C
0A
1>
1:
0;
1)
0*
#240000
0!
0<
0=
1,
#245000
1!
1<
1=
0,
1A
1D
0B
0>
1;
1*
#250000
0!
0<
0=
1,
#255000
1!
1<
1=
0,
1E
0C
0A
1>
19
0:
0;
1(
0)
0*
#260000
0!
0<
0=
1,
#265000
1!
1<
1=
0,
1A
1B
0>
1;
1*
#270000
0!
0<
0=
1,
#275000
1!
1<
1=
0,
1C
0A
1>
1:
0;
1)
0*
#280000
0!
0<
0=
1,
#285000
1!
1<
1=
0,
1A
1H
0F
0D
0B
0>
1;
1*
1I
#290000
0!
0<
0=
1,
#295000
1!
1<
1=
0,
1J
0G
0E
0C
0A
1K
0I
0H
1>
17
08
09
0:
0;
1&
0'
0(
0)
0*
0K
1I
#300000
0!
0<
0=
1,
#305000
1!
1<
1=
0,
1A
1B
0>
1;
1*
#310000
0!
0<
0=
1,
#315000
1!
1<
1=
0,
1C
0A
1>
1:
0;
1)
0*
#320000
0!
0<
0=
1,
#325000
1!
1<
1=
0,
1A
1D
0B
0>
1;
1*
#330000
0!
0<
0=
1,
#335000
1!
1<
1=
0,
1E
0C
0A
1>
19
0:
0;
1(
0)
0*
#340000
0!
0<
0=
1,
#345000
1!
1<
1=
0,
1A
1B
0>
1;
1*
#350000
0!
0<
0=
1,
#355000
1!
1<
1=
0,
1C
0A
1>
1:
0;
1)
0*
#360000
0!
0<
0=
1,
#365000
1!
1<
1=
0,
1A
1F
0D
0B
0>
1;
1*
#370000
0!
0<
0=
1,
#375000
1!
1<
1=
0,
1G
0E
0C
0A
1>
18
09
0:
0;
1'
0(
0)
0*
#380000
0!
0<
0=
1,
#385000
1!
1<
1=
0,
1A
1B
0>
1;
1*
#390000
0!
0<
0=
1,
#395000
1!
1<
1=
0,
1C
0A
1>
1:
0;
1)
0*
#400000
0!
0<
0=
1,
#405000
1!
1<
1=
0,
1A
1D
0B
0>
1;
1*
#410000
0!
0<
0=
1,
#415000
1!
1<
1=
0,
1E
0C
0A
1>
19
0:
0;
1(
0)
0*
#420000
0!
0<
0=
1,
#425000
1!
1<
1=
0,
1A
1B
0>
1;
1*
#430000
0!
0<
0=
1,
#435000
1!
1<
1=
0,
1C
0A
1>
1:
0;
1)
0*
#440000
0!
0<
0=
1,
#445000
1!
1<
1=
0,
1A
1H
0F
0D
0B
0>
1;
1*
1K
0I
#450000
0!
0<
0=
1,
#455000
1!
1<
1=
0,
1L
0J
0G
0E
0C
0A
1I
0H
1>
16
07
08
09
0:
0;
1%
0&
0'
0(
0)
0*
0I
#460000
0!
0<
0=
1,
#465000
1!
1<
1=
0,
1A
1B
0>
1;
1*
#470000
0!
0<
0=
1,
#475000
1!
1<
1=
0,
1C
0A
1>
1:
0;
1)
0*
#480000
0!
0<
0=
1,
#485000
1!
1<
1=
0,
1A
1D
0B
0>
1;
1*
#490000
0!
0<
0=
1,
#495000
1!
1<
1=
0,
1E
0C
0A
1>
19
0:
0;
1(
0)
0*
#500000
0!
0<
0=
1,
#505000
1!
1<
1=
0,
1A
1B
0>
1;
1*
#510000
0!
0<
0=
1,
#515000
1!
1<
1=
0,
1C
0A
1>
1:
0;
1)
0*
#520000
0!
0<
0=
1,
#525000
1!
1<
1=
0,
1A
1F
0D
0B
0>
1;
1*
#530000
0!
0<
0=
1,
#535000
1!
1<
1=
0,
1G
0E
0C
0A
1>
18
09
0:
0;
1'
0(
0)
0*
#540000
0!
0<
0=
1,
#545000
1!
1<
1=
0,
1A
1B
0>
1;
1*
#550000
0!
0<
0=
1,
#555000
1!
1<
1=
0,
1C
0A
1>
1:
0;
1)
0*
#560000
0!
0<
0=
1,
#565000
1!
1<
1=
0,
1A
1D
0B
0>
1;
1*
#570000
0!
0<
0=
1,
#575000
1!
1<
1=
0,
1E
0C
0A
1>
19
0:
0;
1(
0)
0*
#580000
0!
0<
0=
1,
#585000
1!
1<
1=
0,
1A
1B
0>
1;
1*
#590000
0!
0<
0=
1,
#595000
1!
1<
1=
0,
1C
0A
1>
1:
0;
1)
0*
#600000
0!
0<
0=
1,
#605000
1!
1<
1=
0,
1A
1H
0F
0D
0B
0>
1;
1*
1I
#610000
0!
0<
0=
1,
#615000
1!
1<
1=
0,
1J
0G
0E
0C
0A
0P
1M
0K
0I
0H
1>
17
08
09
0:
0;
1&
0'
0(
0)
0*
0M
1K
1I
#620000
0!
0<
0=
1,
#625000
1!
1<
1=
0,
1A
1B
0>
1;
1*
#630000
0!
0<
0=
1,
#635000
1!
1<
1=
0,
1C
0A
1>
1:
0;
1)
0*
#640000
0!
0<
0=
1,
#645000
1!
1<
1=
0,
1A
1D
0B
0>
1;
1*
#650000
0!
0<
0=
1,
#655000
1!
1<
1=
0,
1E
0C
0A
1>
19
0:
0;
1(
0)
0*
#660000
0!
0<
0=
1,
#665000
1!
1<
1=
0,
1A
1B
0>
1;
1*
#670000
0!
0<
0=
1,
#675000
1!
1<
1=
0,
1C
0A
1>
1:
0;
1)
0*
#680000
0!
0<
0=
1,
#685000
1!
1<
1=
0,
1A
1F
0D
0B
0>
1;
1*
#690000
0!
0<
0=
1,
#695000
1!
1<
1=
0,
1G
0E
0C
0A
1>
18
09
0:
0;
1'
0(
0)
0*
#700000
0!
0<
0=
1,
#705000
1!
1<
1=
0,
1A
1B
0>
1;
1*
#710000
0!
0<
0=
1,
#715000
1!
1<
1=
0,
1C
0A
1>
1:
0;
1)
0*
#720000
0!
0<
0=
1,
#725000
1!
1<
1=
0,
1A
1D
0B
0>
1;
1*
#730000
0!
0<
0=
1,
#735000
1!
1<
1=
0,
1E
0C
0A
1>
19
0:
0;
1(
0)
0*
#740000
0!
0<
0=
1,
#745000
1!
1<
1=
0,
1A
1B
0>
1;
1*
#750000
0!
0<
0=
1,
#755000
1!
1<
1=
0,
1C
0A
1>
1:
0;
1)
0*
#760000
0!
0<
0=
1,
#765000
1!
1<
1=
0,
1A
1H
0F
0D
0B
0>
1;
1*
1M
0K
0I
#770000
0!
0<
0=
1,
#775000
1!
1<
1=
0,
1N
0L
0J
0G
0E
0C
0A
1Q
1P
1I
0H
1>
15
06
07
08
09
0:
0;
1$
0%
0&
0'
0(
0)
0*
0Q
0I
#780000
0!
0<
0=
1,
#785000
1!
1<
1=
0,
1A
1B
0>
1;
1*
#790000
0!
0<
0=
1,
#795000
1!
1<
1=
0,
1C
0A
1>
1:
0;
1)
0*
#800000
0!
0<
0=
1,
#805000
1!
1<
1=
0,
1A
1D
0B
0>
1;
1*
#810000
0!
0<
0=
1,
#815000
1!
1<
1=
0,
1E
0C
0A
1>
19
0:
0;
1(
0)
0*
#820000
0!
0<
0=
1,
#825000
1!
1<
1=
0,
1A
1B
0>
1;
1*
#830000
0!
0<
0=
1,
#835000
1!
1<
1=
0,
1C
0A
1>
1:
0;
1)
0*
#840000
0!
0<
0=
1,
#845000
1!
1<
1=
0,
1A
1F
0D
0B
0>
1;
1*
#850000
0!
0<
0=
1,
#855000
1!
1<
1=
0,
1G
0E
0C
0A
1>
18
09
0:
0;
1'
0(
0)
0*
#860000
0!
0<
0=
1,
#865000
1!
1<
1=
0,
1A
1B
0>
1;
1*
#870000
0!
0<
0=
1,
#875000
1!
1<
1=
0,
1C
0A
1>
1:
0;
1)
0*
#880000
0!
0<
0=
1,
#885000
1!
1<
1=
0,
1A
1D
0B
0>
1;
1*
#890000
0!
0<
0=
1,
#895000
1!
1<
1=
0,
1E
0C
0A
1>
19
0:
0;
1(
0)
0*
#900000
0!
0<
0=
1,
#905000
1!
1<
1=
0,
1A
1B
0>
1;
1*
#910000
0!
0<
0=
1,
#915000
1!
1<
1=
0,
1C
0A
1>
1:
0;
1)
0*
#920000
0!
0<
0=
1,
#925000
1!
1<
1=
0,
1A
1H
0F
0D
0B
0>
1;
1*
1I
#930000
0!
0<
0=
1,
#935000
1!
1<
1=
0,
1J
0G
0E
0C
0A
1K
0I
0H
1>
17
08
09
0:
0;
1&
0'
0(
0)
0*
0K
1I
#940000
0!
0<
0=
1,
#945000
1!
1<
1=
0,
1A
1B
0>
1;
1*
#950000
0!
0<
0=
1,
#955000
1!
1<
1=
0,
1C
0A
1>
1:
0;
1)
0*
#960000
0!
0<
0=
1,
#965000
1!
1<
1=
0,
1A
1D
0B
0>
1;
1*
#970000
0!
0<
0=
1,
#975000
1!
1<
1=
0,
1E
0C
0A
1>
19
0:
0;
1(
0)
0*
#980000
0!
0<
0=
1,
#985000
1!
1<
1=
0,
1A
1B
0>
1;
1*
#990000
0!
0<
0=
1,
#995000
1!
1<
1=
0,
1C
0A
1>
1:
0;
1)
0*
