simulation/qsim/ula.msim.vcd
$comment
	File created using the following command:
		vcd file ula.msim.vcd -direction
$end
$date
	Wed Apr 18 23:41:52 2018
$end
$version
	ModelSim Version 10.1d
$end
$timescale
	1ps
$end
$scope module ula_vlg_vec_tst $end
$var reg 8 ! A [7:0] $end
$var reg 8 " B [7:0] $end
$var reg 2 # SEL [1:0] $end
$var wire 1 $ OUTPUT [7] $end
$var wire 1 % OUTPUT [6] $end
$var wire 1 & OUTPUT [5] $end
$var wire 1 ' OUTPUT [4] $end
$var wire 1 ( OUTPUT [3] $end
$var wire 1 ) OUTPUT [2] $end
$var wire 1 * OUTPUT [1] $end
$var wire 1 + OUTPUT [0] $end
$var wire 1 , sampler $end
$scope module i1 $end
$var wire 1 - gnd $end
$var wire 1 . vcc $end
$var wire 1 / unknown $end
$var tri1 1 0 devclrn $end
$var tri1 1 1 devpor $end
$var tri1 1 2 devoe $end
$var wire 1 3 OUTPUT[7]~output_o $end
$var wire 1 4 OUTPUT[6]~output_o $end
$var wire 1 5 OUTPUT[5]~output_o $end
$var wire 1 6 OUTPUT[4]~output_o $end
$var wire 1 7 OUTPUT[3]~output_o $end
$var wire 1 8 OUTPUT[2]~output_o $end
$var wire 1 9 OUTPUT[1]~output_o $end
$var wire 1 : OUTPUT[0]~output_o $end
$var wire 1 ; A[7]~input_o $end
$var wire 1 < SEL[1]~input_o $end
$var wire 1 = SEL[0]~input_o $end
$var wire 1 > B[7]~input_o $end
$var wire 1 ? B[6]~input_o $end
$var wire 1 @ A[6]~input_o $end
$var wire 1 A B[3]~input_o $end
$var wire 1 B A[2]~input_o $end
$var wire 1 C A[0]~input_o $end
$var wire 1 D B[1]~input_o $end
$var wire 1 E A[1]~input_o $end
$var wire 1 F B[0]~input_o $end
$var wire 1 G inst4|inst2|inst5~0_combout $end
$var wire 1 H inst4|inst3|inst5~0_combout $end
$var wire 1 I B[2]~input_o $end
$var wire 1 J inst4|inst3|inst5~1_combout $end
$var wire 1 K A[3]~input_o $end
$var wire 1 L inst4|inst4|inst5~0_combout $end
$var wire 1 M A[4]~input_o $end
$var wire 1 N B[4]~input_o $end
$var wire 1 O inst4|inst6|inst5~0_combout $end
$var wire 1 P B[5]~input_o $end
$var wire 1 Q A[5]~input_o $end
$var wire 1 R inst4|inst6|inst5~1_combout $end
$var wire 1 S inst|inst2|inst7|inst3~0_combout $end
$var wire 1 T inst|inst2|inst7|inst3~1_combout $end
$var wire 1 U inst|inst2|inst7|inst3~2_combout $end
$var wire 1 V inst|inst2|inst8|inst3~0_combout $end
$var wire 1 W inst|inst2|inst8|inst3~1_combout $end
$var wire 1 X inst|inst2|inst5|inst3~0_combout $end
$var wire 1 Y inst|inst2|inst5|inst3~1_combout $end
$var wire 1 Z inst|inst2|inst6|inst3~0_combout $end
$var wire 1 [ inst|inst2|inst6|inst3~1_combout $end
$var wire 1 \ inst|inst2|inst3|inst3~0_combout $end
$var wire 1 ] inst|inst2|inst3|inst3~1_combout $end
$var wire 1 ^ inst|inst2|inst2|inst3~0_combout $end
$var wire 1 _ inst|inst2|inst2|inst3~1_combout $end
$var wire 1 ` inst|inst2|inst1|inst3~0_combout $end
$var wire 1 a inst|inst2|inst1|inst3~1_combout $end
$var wire 1 b inst|inst2|inst|inst3~0_combout $end
$upscope $end
$upscope $end
$enddefinitions $end
#0
$dumpvars
b0 !
b0 "
b0 #
0+
0*
0)
0(
0'
0&
0%
0$
x,
0-
1.
x/
10
11
12
03
04
05
06
07
08
09
0:
0;
0<
0=
0>
0?
0@
0A
0B
0C
0D
0E
0F
0G
0H
0I
0J
0K
0L
0M
0N
0O
0P
0Q
0R
0S
0T
0U
0V
0W
0X
0Y
0Z
0[
0\
0]
0^
0_
0`
0a
0b
$end
#20000
b1 !
1C
0,
#40000
b11 !
b1 "
b10 !
1F
0C
1E
1,
#60000
b11 !
1C
0,
1G
1b
1:
1+
#80000
b111 !
b11 "
b1 #
b101 !
b10 "
b100 !
1=
0F
1D
0C
0E
1B
1,
1`
0G
1H
0b
1_
0H
0:
18
0+
1)
1a
19
1*
#100000
b101 !
1C
0,
1b
1:
1+
#120000
b111 !
b11 "
b110 !
1F
0C
1E
1,
1G
1H
#140000
b111 !
1C
0,
#160000
b1111 !
b111 "
b11 #
b1011 !
b101 "
b10 #
b1001 !
b100 "
b1000 !
0=
1<
0F
0D
1I
0C
0E
0B
1K
1,
0`
1\
0G
1J
0H
1L
1[
1Y
1W
1U
1^
0J
1Z
16
15
14
13
1'
1&
1%
1$
0\
0L
0Z
#180000
b1001 !
1C
0,
0b
0:
0+
#200000
b1011 !
b101 "
b1010 !
1F
0C
1E
1,
1b
0a
1:
09
1+
0*
#220000
b1011 !
1C
0,
1`
1G
0b
0^
1J
0:
0+
1\
1L
1Z
#240000
b1111 !
b111 "
b11 #
b1101 !
b110 "
b1100 !
1=
0F
1D
0C
0E
1B
1,
0G
1H
1a
0Y
0W
0U
1^
0H
19
05
04
03
1*
0&
0%
0$
0_
08
0)
#260000
b1101 !
1C
0,
1b
1:
1+
#280000
b1111 !
b111 "
b1110 !
1F
0C
1E
1,
1G
0a
0^
1H
09
0*
1_
18
1)
#300000
b1111 !
1C
0,
0`
0b
0:
0+
1a
19
1*
#320000
b11111 !
b1111 "
b10111 !
b1011 "
b1 #
b10011 !
b1001 "
b0 #
b10001 !
b1000 "
b10000 !
0=
0<
0F
0D
0I
1A
0C
0E
0B
0K
1M
1,
0Z
0G
0J
0H
1O
0a
0_
0L
09
08
0*
0)
0[
0O
06
0'
#340000
b10001 !
1C
0,
#360000
b10011 !
b1001 "
b10010 !
1F
0C
1E
1,
#380000
b10011 !
1C
0,
1G
1b
1:
1+
#400000
b10111 !
b1011 "
b1 #
b10101 !
b1010 "
b10100 !
1=
0F
1D
0C
0E
1B
1,
1`
0G
1H
0b
1_
1]
1[
0H
1L
0:
18
17
16
0+
1)
1(
1'
1a
0L
1O
19
1*
0O
#420000
b10101 !
1C
0,
1b
1:
1+
#440000
b10111 !
b1011 "
b10110 !
1F
0C
1E
1,
1G
1H
1L
1O
#460000
b10111 !
1C
0,
#480000
b11111 !
b1111 "
b11 #
b11011 !
b1101 "
b10 #
b11001 !
b1100 "
b11000 !
0=
1<
0F
0D
1I
0C
0E
0B
1K
1,
0`
0\
1Z
1X
0G
1J
0H
0]
0[
1Y
1W
1U
1^
0J
07
06
15
14
13
0(
0'
1&
1%
1$
1\
#500000
b11001 !
1C
0,
0b
0:
0+
#520000
b11011 !
b1101 "
b11010 !
1F
0C
1E
1,
1b
0a
1:
09
1+
0*
#540000
b11011 !
1C
0,
1`
1G
0b
0^
1J
0:
0+
0\
#560000
b11111 !
b1111 "
b11 #
b11101 !
b1110 "
b11100 !
1=
0F
1D
0C
0E
1B
1,
0G
1H
1a
1]
0W
0U
1^
0H
19
17
04
03
1*
1(
0%
0$
0_
08
0)
#580000
b11101 !
1C
0,
1b
1:
1+
#600000
b11111 !
b1111 "
b11110 !
1F
0C
1E
1,
1G
0a
0^
1H
09
0*
1_
18
1)
#620000
b11111 !
1C
0,
0`
0b
0:
0+
1a
19
1*
#640000
b111111 !
b11111 "
b101111 !
b10111 "
b100111 !
b10011 "
b1 #
b100011 !
b10001 "
b0 #
b100001 !
b10000 "
b100000 !
0=
0<
0F
0D
0I
0A
1N
0C
0E
0B
0K
0M
1Q
1,
0X
0G
0J
0L
0H
1R
0a
0_
0]
0O
09
08
07
0*
0)
0(
0Y
0R
05
0&
#660000
b100001 !
1C
0,
#680000
b100011 !
b10001 "
b100010 !
1F
0C
1E
1,
#700000
b100011 !
1C
0,
1G
1b
1:
1+
#720000
b100111 !
b10011 "
b1 #
b100101 !
b10010 "
b100100 !
1=
0F
1D
0C
0E
1B
1,
1`
0G
1H
0b
1_
1[
1Y
0H
0:
18
16
15
0+
1)
1'
1&
1a
19
1*
#740000
b100101 !
1C
0,
1b
1:
1+
#760000
b100111 !
b10011 "
b100110 !
1F
0C
1E
1,
1G
1H
#780000
b100111 !
1C
0,
#800000
b101111 !
b10111 "
b11 #
b101011 !
b10101 "
b10 #
b101001 !
b10100 "
b101000 !
0=
1<
0F
0D
1I
0C
0E
0B
1K
1,
0`
1\
0G
1J
0H
1L
0Y
1W
1U
1^
0J
0Z
1O
05
14
13
0&
1%
1$
0\
0L
1X
1R
1Z
0O
1V
0X
0R
0V
#820000
b101001 !
1C
0,
0b
0:
0+
#840000
b101011 !
b10101 "
b101010 !
1F
0C
1E
1,
1b
0a
1:
09
1+
0*
#860000
b101011 !
1C
0,
1`
1G
0b
0^
1J
0:
0+
1\
1L
0Z
1O
1X
1R
1V
#880000
b101111 !
b10111 "
b11 #
b101101 !
b10110 "
b101100 !
1=
0F
1D
0C
0E
1B
1,
0G
1H
1a
0[
0U
1^
0H
19
06
03
1*
0'
0$
0_
08
0)
#900000
b101101 !
1C
0,
1b
1:
1+
#920000
b101111 !
b10111 "
b101110 !
1F
0C
1E
1,
1G
0a
0^
1H
09
0*
1_
18
1)
#940000
b101111 !
1C
0,
0`
0b
0:
0+
1a
19
1*
#960000
b111111 !
b11111 "
b110111 !
b11011 "
b1 #
b110011 !
b11001 "
b0 #
b110001 !
b11000 "
b110000 !
0=
0<
0F
0D
0I
1A
0C
0E
0B
0K
1M
1,
1Z
0X
0V
0G
0J
0H
0a
0_
1Y
0W
0L
09
08
15
04
0*
0)
1&
0%
1[
0Y
16
05
1'
0&
#980000
b110001 !
1C
0,
